(module Buzzer_22x10.8 (layer F.Cu) (tedit 5F3CFA3B)
  (fp_text reference REF** (at 0 0.5) (layer F.SilkS)
    (effects (font (size 1 1) (thickness 0.15)))
  )
  (fp_text value Buzzer_22x10.8 (at 0 -0.5) (layer F.Fab)
    (effects (font (size 1 1) (thickness 0.15)))
  )
  (fp_circle (center 0 0) (end 11 0) (layer F.CrtYd) (width 0.12))
  (fp_circle (center 0 0) (end 11.1 0) (layer F.SilkS) (width 0.12))
  (pad 1 thru_hole circle (at -5 0) (size 2 2) (drill 1) (layers *.Cu *.Mask))
  (pad 2 thru_hole circle (at 5 0) (size 2 2) (drill 1) (layers *.Cu *.Mask))
)
