(module Osram_SFH_3710_Z (layer F.Cu) (tedit 5F80D2E3)
  (descr "LED SMD 1206 (3216 Metric), square (rectangular) end terminal, IPC_7351 nominal, (Body size source: http://www.tortai-tech.com/upload/download/2011102023233369053.pdf), generated with kicad-footprint-generator")
  (tags LED)
  (attr smd)
  (fp_text reference REF** (at 0 -1.82) (layer F.SilkS)
    (effects (font (size 1 1) (thickness 0.15)))
  )
  (fp_text value Osram_SFH_3710_Z (at 0 1.82) (layer F.Fab)
    (effects (font (size 1 1) (thickness 0.15)))
  )
  (fp_line (start 2 1.075) (end -2 1.075) (layer F.CrtYd) (width 0.05))
  (fp_line (start 2 -1.075) (end 2 1.075) (layer F.CrtYd) (width 0.05))
  (fp_line (start -2 -1.075) (end 2 -1.075) (layer F.CrtYd) (width 0.05))
  (fp_line (start -2 1.075) (end -2 -1.075) (layer F.CrtYd) (width 0.05))
  (fp_line (start -2 1.075) (end 1.4 1.075) (layer F.SilkS) (width 0.12))
  (fp_line (start -2 -1.075) (end -2 1.075) (layer F.SilkS) (width 0.12))
  (fp_line (start 1.4 -1.075) (end -2 -1.075) (layer F.SilkS) (width 0.12))
  (fp_line (start 1.05 0.675) (end 1.05 -0.675) (layer F.Fab) (width 0.1))
  (fp_line (start -1.05 0.675) (end 1.05 0.675) (layer F.Fab) (width 0.1))
  (fp_line (start -1.05 -0.4) (end -1.05 0.675) (layer F.Fab) (width 0.1))
  (fp_line (start -0.65 -0.675) (end -1.05 -0.4) (layer F.Fab) (width 0.1))
  (fp_line (start 1.05 -0.675) (end -0.65 -0.675) (layer F.Fab) (width 0.1))
  (fp_text user %R (at 0 0) (layer F.Fab)
    (effects (font (size 0.8 0.8) (thickness 0.12)))
  )
  (pad 2 smd rect (at 1.1 0) (size 1 1.25) (layers F.Cu F.Paste F.Mask))
  (pad 1 smd rect (at -1.1 0) (size 1 1.25) (layers F.Cu F.Paste F.Mask))
  (model ${KISYS3DMOD}/LED_SMD.3dshapes/LED_1206_3216Metric.wrl
    (at (xyz 0 0 0))
    (scale (xyz 1 1 1))
    (rotate (xyz 0 0 0))
  )
)
