%TF.GenerationSoftware,KiCad,Pcbnew,5.1.6-1.fc32*%
%TF.CreationDate,2020-10-02T18:06:37+02:00*%
%TF.ProjectId,microFSETv4final,6d696372-6f46-4534-9554-763466696e61,rev?*%
%TF.SameCoordinates,Original*%
%TF.FileFunction,Paste,Top*%
%TF.FilePolarity,Positive*%
%FSLAX46Y46*%
G04 Gerber Fmt 4.6, Leading zero omitted, Abs format (unit mm)*
G04 Created by KiCad (PCBNEW 5.1.6-1.fc32) date 2020-10-02 18:06:37*
%MOMM*%
%LPD*%
G01*
G04 APERTURE LIST*
%ADD10R,1.000000X1.550000*%
%ADD11R,1.550000X1.000000*%
%ADD12R,1.400000X1.600000*%
%ADD13R,1.900000X1.900000*%
%ADD14R,1.350000X0.400000*%
%ADD15R,0.700000X0.600000*%
%ADD16R,0.400000X1.900000*%
%ADD17R,0.550000X1.500000*%
%ADD18R,1.500000X0.550000*%
%ADD19R,0.900000X0.400000*%
G04 APERTURE END LIST*
%TO.C,R6*%
G36*
G01*
X153574000Y-91056750D02*
X153574000Y-91569250D01*
G75*
G02*
X153355250Y-91788000I-218750J0D01*
G01*
X152917750Y-91788000D01*
G75*
G02*
X152699000Y-91569250I0J218750D01*
G01*
X152699000Y-91056750D01*
G75*
G02*
X152917750Y-90838000I218750J0D01*
G01*
X153355250Y-90838000D01*
G75*
G02*
X153574000Y-91056750I0J-218750D01*
G01*
G37*
G36*
G01*
X155149000Y-91056750D02*
X155149000Y-91569250D01*
G75*
G02*
X154930250Y-91788000I-218750J0D01*
G01*
X154492750Y-91788000D01*
G75*
G02*
X154274000Y-91569250I0J218750D01*
G01*
X154274000Y-91056750D01*
G75*
G02*
X154492750Y-90838000I218750J0D01*
G01*
X154930250Y-90838000D01*
G75*
G02*
X155149000Y-91056750I0J-218750D01*
G01*
G37*
%TD*%
%TO.C,R5*%
G36*
G01*
X153574000Y-89532750D02*
X153574000Y-90045250D01*
G75*
G02*
X153355250Y-90264000I-218750J0D01*
G01*
X152917750Y-90264000D01*
G75*
G02*
X152699000Y-90045250I0J218750D01*
G01*
X152699000Y-89532750D01*
G75*
G02*
X152917750Y-89314000I218750J0D01*
G01*
X153355250Y-89314000D01*
G75*
G02*
X153574000Y-89532750I0J-218750D01*
G01*
G37*
G36*
G01*
X155149000Y-89532750D02*
X155149000Y-90045250D01*
G75*
G02*
X154930250Y-90264000I-218750J0D01*
G01*
X154492750Y-90264000D01*
G75*
G02*
X154274000Y-90045250I0J218750D01*
G01*
X154274000Y-89532750D01*
G75*
G02*
X154492750Y-89314000I218750J0D01*
G01*
X154930250Y-89314000D01*
G75*
G02*
X155149000Y-89532750I0J-218750D01*
G01*
G37*
%TD*%
%TO.C,C2*%
G36*
G01*
X145384000Y-86870250D02*
X145384000Y-86357750D01*
G75*
G02*
X145602750Y-86139000I218750J0D01*
G01*
X146040250Y-86139000D01*
G75*
G02*
X146259000Y-86357750I0J-218750D01*
G01*
X146259000Y-86870250D01*
G75*
G02*
X146040250Y-87089000I-218750J0D01*
G01*
X145602750Y-87089000D01*
G75*
G02*
X145384000Y-86870250I0J218750D01*
G01*
G37*
G36*
G01*
X143809000Y-86870250D02*
X143809000Y-86357750D01*
G75*
G02*
X144027750Y-86139000I218750J0D01*
G01*
X144465250Y-86139000D01*
G75*
G02*
X144684000Y-86357750I0J-218750D01*
G01*
X144684000Y-86870250D01*
G75*
G02*
X144465250Y-87089000I-218750J0D01*
G01*
X144027750Y-87089000D01*
G75*
G02*
X143809000Y-86870250I0J218750D01*
G01*
G37*
%TD*%
%TO.C,R4*%
G36*
G01*
X122430250Y-81039220D02*
X121917750Y-81039220D01*
G75*
G02*
X121699000Y-80820470I0J218750D01*
G01*
X121699000Y-80382970D01*
G75*
G02*
X121917750Y-80164220I218750J0D01*
G01*
X122430250Y-80164220D01*
G75*
G02*
X122649000Y-80382970I0J-218750D01*
G01*
X122649000Y-80820470D01*
G75*
G02*
X122430250Y-81039220I-218750J0D01*
G01*
G37*
G36*
G01*
X122430250Y-82614220D02*
X121917750Y-82614220D01*
G75*
G02*
X121699000Y-82395470I0J218750D01*
G01*
X121699000Y-81957970D01*
G75*
G02*
X121917750Y-81739220I218750J0D01*
G01*
X122430250Y-81739220D01*
G75*
G02*
X122649000Y-81957970I0J-218750D01*
G01*
X122649000Y-82395470D01*
G75*
G02*
X122430250Y-82614220I-218750J0D01*
G01*
G37*
%TD*%
D10*
%TO.C,SW8*%
X174193000Y-111167000D03*
X174193000Y-116417000D03*
X170993000Y-111167000D03*
X170993000Y-116417000D03*
%TD*%
%TO.C,SW7*%
X165938000Y-111167000D03*
X165938000Y-116417000D03*
X162738000Y-111167000D03*
X162738000Y-116417000D03*
%TD*%
%TO.C,SW6*%
X157683000Y-111167000D03*
X157683000Y-116417000D03*
X154483000Y-111167000D03*
X154483000Y-116417000D03*
%TD*%
%TO.C,SW5*%
X149428000Y-111167000D03*
X149428000Y-116417000D03*
X146228000Y-111167000D03*
X146228000Y-116417000D03*
%TD*%
%TO.C,SW4*%
X141173000Y-111167000D03*
X141173000Y-116417000D03*
X137973000Y-111167000D03*
X137973000Y-116417000D03*
%TD*%
%TO.C,SW3*%
X132918000Y-111167000D03*
X132918000Y-116417000D03*
X129718000Y-111167000D03*
X129718000Y-116417000D03*
%TD*%
%TO.C,SW2*%
X124663000Y-111167000D03*
X124663000Y-116417000D03*
X121463000Y-111167000D03*
X121463000Y-116417000D03*
%TD*%
%TO.C,SW1*%
X116408000Y-111167000D03*
X116408000Y-116417000D03*
X113208000Y-111167000D03*
X113208000Y-116417000D03*
%TD*%
D11*
%TO.C,Reset*%
X119735000Y-79408000D03*
X114485000Y-79408000D03*
X119735000Y-76208000D03*
X114485000Y-76208000D03*
%TD*%
D12*
%TO.C,USB*%
X109088240Y-90376140D03*
X109088240Y-96776140D03*
D13*
X106638240Y-92376140D03*
D14*
X109313240Y-93576140D03*
X109313240Y-94226140D03*
X109313240Y-94876140D03*
X109313240Y-92276140D03*
X109313240Y-92926140D03*
D13*
X106638240Y-94776140D03*
%TD*%
D15*
%TO.C,D1*%
X112014000Y-89851000D03*
X112014000Y-91251000D03*
%TD*%
D16*
%TO.C,Y1*%
X135071000Y-101269800D03*
X136271000Y-101269800D03*
X137471000Y-101269800D03*
%TD*%
%TO.C,R3*%
G36*
G01*
X116270520Y-87647490D02*
X116270520Y-87134990D01*
G75*
G02*
X116489270Y-86916240I218750J0D01*
G01*
X116926770Y-86916240D01*
G75*
G02*
X117145520Y-87134990I0J-218750D01*
G01*
X117145520Y-87647490D01*
G75*
G02*
X116926770Y-87866240I-218750J0D01*
G01*
X116489270Y-87866240D01*
G75*
G02*
X116270520Y-87647490I0J218750D01*
G01*
G37*
G36*
G01*
X114695520Y-87647490D02*
X114695520Y-87134990D01*
G75*
G02*
X114914270Y-86916240I218750J0D01*
G01*
X115351770Y-86916240D01*
G75*
G02*
X115570520Y-87134990I0J-218750D01*
G01*
X115570520Y-87647490D01*
G75*
G02*
X115351770Y-87866240I-218750J0D01*
G01*
X114914270Y-87866240D01*
G75*
G02*
X114695520Y-87647490I0J218750D01*
G01*
G37*
%TD*%
%TO.C,Q2 PF0/A5*%
G36*
G01*
X117330520Y-85476240D02*
X117330520Y-84226240D01*
G75*
G02*
X117580520Y-83976240I250000J0D01*
G01*
X118330520Y-83976240D01*
G75*
G02*
X118580520Y-84226240I0J-250000D01*
G01*
X118580520Y-85476240D01*
G75*
G02*
X118330520Y-85726240I-250000J0D01*
G01*
X117580520Y-85726240D01*
G75*
G02*
X117330520Y-85476240I0J250000D01*
G01*
G37*
G36*
G01*
X114530520Y-85476240D02*
X114530520Y-84226240D01*
G75*
G02*
X114780520Y-83976240I250000J0D01*
G01*
X115530520Y-83976240D01*
G75*
G02*
X115780520Y-84226240I0J-250000D01*
G01*
X115780520Y-85476240D01*
G75*
G02*
X115530520Y-85726240I-250000J0D01*
G01*
X114780520Y-85726240D01*
G75*
G02*
X114530520Y-85476240I0J250000D01*
G01*
G37*
%TD*%
%TO.C,U2*%
G36*
G01*
X164366360Y-96555700D02*
X164366360Y-96255700D01*
G75*
G02*
X164516360Y-96105700I150000J0D01*
G01*
X166266360Y-96105700D01*
G75*
G02*
X166416360Y-96255700I0J-150000D01*
G01*
X166416360Y-96555700D01*
G75*
G02*
X166266360Y-96705700I-150000J0D01*
G01*
X164516360Y-96705700D01*
G75*
G02*
X164366360Y-96555700I0J150000D01*
G01*
G37*
G36*
G01*
X164366360Y-97825700D02*
X164366360Y-97525700D01*
G75*
G02*
X164516360Y-97375700I150000J0D01*
G01*
X166266360Y-97375700D01*
G75*
G02*
X166416360Y-97525700I0J-150000D01*
G01*
X166416360Y-97825700D01*
G75*
G02*
X166266360Y-97975700I-150000J0D01*
G01*
X164516360Y-97975700D01*
G75*
G02*
X164366360Y-97825700I0J150000D01*
G01*
G37*
G36*
G01*
X164366360Y-99095700D02*
X164366360Y-98795700D01*
G75*
G02*
X164516360Y-98645700I150000J0D01*
G01*
X166266360Y-98645700D01*
G75*
G02*
X166416360Y-98795700I0J-150000D01*
G01*
X166416360Y-99095700D01*
G75*
G02*
X166266360Y-99245700I-150000J0D01*
G01*
X164516360Y-99245700D01*
G75*
G02*
X164366360Y-99095700I0J150000D01*
G01*
G37*
G36*
G01*
X164366360Y-100365700D02*
X164366360Y-100065700D01*
G75*
G02*
X164516360Y-99915700I150000J0D01*
G01*
X166266360Y-99915700D01*
G75*
G02*
X166416360Y-100065700I0J-150000D01*
G01*
X166416360Y-100365700D01*
G75*
G02*
X166266360Y-100515700I-150000J0D01*
G01*
X164516360Y-100515700D01*
G75*
G02*
X164366360Y-100365700I0J150000D01*
G01*
G37*
G36*
G01*
X164366360Y-101635700D02*
X164366360Y-101335700D01*
G75*
G02*
X164516360Y-101185700I150000J0D01*
G01*
X166266360Y-101185700D01*
G75*
G02*
X166416360Y-101335700I0J-150000D01*
G01*
X166416360Y-101635700D01*
G75*
G02*
X166266360Y-101785700I-150000J0D01*
G01*
X164516360Y-101785700D01*
G75*
G02*
X164366360Y-101635700I0J150000D01*
G01*
G37*
G36*
G01*
X164366360Y-102905700D02*
X164366360Y-102605700D01*
G75*
G02*
X164516360Y-102455700I150000J0D01*
G01*
X166266360Y-102455700D01*
G75*
G02*
X166416360Y-102605700I0J-150000D01*
G01*
X166416360Y-102905700D01*
G75*
G02*
X166266360Y-103055700I-150000J0D01*
G01*
X164516360Y-103055700D01*
G75*
G02*
X164366360Y-102905700I0J150000D01*
G01*
G37*
G36*
G01*
X164366360Y-104175700D02*
X164366360Y-103875700D01*
G75*
G02*
X164516360Y-103725700I150000J0D01*
G01*
X166266360Y-103725700D01*
G75*
G02*
X166416360Y-103875700I0J-150000D01*
G01*
X166416360Y-104175700D01*
G75*
G02*
X166266360Y-104325700I-150000J0D01*
G01*
X164516360Y-104325700D01*
G75*
G02*
X164366360Y-104175700I0J150000D01*
G01*
G37*
G36*
G01*
X164366360Y-105445700D02*
X164366360Y-105145700D01*
G75*
G02*
X164516360Y-104995700I150000J0D01*
G01*
X166266360Y-104995700D01*
G75*
G02*
X166416360Y-105145700I0J-150000D01*
G01*
X166416360Y-105445700D01*
G75*
G02*
X166266360Y-105595700I-150000J0D01*
G01*
X164516360Y-105595700D01*
G75*
G02*
X164366360Y-105445700I0J150000D01*
G01*
G37*
G36*
G01*
X164366360Y-106715700D02*
X164366360Y-106415700D01*
G75*
G02*
X164516360Y-106265700I150000J0D01*
G01*
X166266360Y-106265700D01*
G75*
G02*
X166416360Y-106415700I0J-150000D01*
G01*
X166416360Y-106715700D01*
G75*
G02*
X166266360Y-106865700I-150000J0D01*
G01*
X164516360Y-106865700D01*
G75*
G02*
X164366360Y-106715700I0J150000D01*
G01*
G37*
G36*
G01*
X155066360Y-106715700D02*
X155066360Y-106415700D01*
G75*
G02*
X155216360Y-106265700I150000J0D01*
G01*
X156966360Y-106265700D01*
G75*
G02*
X157116360Y-106415700I0J-150000D01*
G01*
X157116360Y-106715700D01*
G75*
G02*
X156966360Y-106865700I-150000J0D01*
G01*
X155216360Y-106865700D01*
G75*
G02*
X155066360Y-106715700I0J150000D01*
G01*
G37*
G36*
G01*
X155066360Y-105445700D02*
X155066360Y-105145700D01*
G75*
G02*
X155216360Y-104995700I150000J0D01*
G01*
X156966360Y-104995700D01*
G75*
G02*
X157116360Y-105145700I0J-150000D01*
G01*
X157116360Y-105445700D01*
G75*
G02*
X156966360Y-105595700I-150000J0D01*
G01*
X155216360Y-105595700D01*
G75*
G02*
X155066360Y-105445700I0J150000D01*
G01*
G37*
G36*
G01*
X155066360Y-104175700D02*
X155066360Y-103875700D01*
G75*
G02*
X155216360Y-103725700I150000J0D01*
G01*
X156966360Y-103725700D01*
G75*
G02*
X157116360Y-103875700I0J-150000D01*
G01*
X157116360Y-104175700D01*
G75*
G02*
X156966360Y-104325700I-150000J0D01*
G01*
X155216360Y-104325700D01*
G75*
G02*
X155066360Y-104175700I0J150000D01*
G01*
G37*
G36*
G01*
X155066360Y-102905700D02*
X155066360Y-102605700D01*
G75*
G02*
X155216360Y-102455700I150000J0D01*
G01*
X156966360Y-102455700D01*
G75*
G02*
X157116360Y-102605700I0J-150000D01*
G01*
X157116360Y-102905700D01*
G75*
G02*
X156966360Y-103055700I-150000J0D01*
G01*
X155216360Y-103055700D01*
G75*
G02*
X155066360Y-102905700I0J150000D01*
G01*
G37*
G36*
G01*
X155066360Y-101635700D02*
X155066360Y-101335700D01*
G75*
G02*
X155216360Y-101185700I150000J0D01*
G01*
X156966360Y-101185700D01*
G75*
G02*
X157116360Y-101335700I0J-150000D01*
G01*
X157116360Y-101635700D01*
G75*
G02*
X156966360Y-101785700I-150000J0D01*
G01*
X155216360Y-101785700D01*
G75*
G02*
X155066360Y-101635700I0J150000D01*
G01*
G37*
G36*
G01*
X155066360Y-100365700D02*
X155066360Y-100065700D01*
G75*
G02*
X155216360Y-99915700I150000J0D01*
G01*
X156966360Y-99915700D01*
G75*
G02*
X157116360Y-100065700I0J-150000D01*
G01*
X157116360Y-100365700D01*
G75*
G02*
X156966360Y-100515700I-150000J0D01*
G01*
X155216360Y-100515700D01*
G75*
G02*
X155066360Y-100365700I0J150000D01*
G01*
G37*
G36*
G01*
X155066360Y-99095700D02*
X155066360Y-98795700D01*
G75*
G02*
X155216360Y-98645700I150000J0D01*
G01*
X156966360Y-98645700D01*
G75*
G02*
X157116360Y-98795700I0J-150000D01*
G01*
X157116360Y-99095700D01*
G75*
G02*
X156966360Y-99245700I-150000J0D01*
G01*
X155216360Y-99245700D01*
G75*
G02*
X155066360Y-99095700I0J150000D01*
G01*
G37*
G36*
G01*
X155066360Y-97825700D02*
X155066360Y-97525700D01*
G75*
G02*
X155216360Y-97375700I150000J0D01*
G01*
X156966360Y-97375700D01*
G75*
G02*
X157116360Y-97525700I0J-150000D01*
G01*
X157116360Y-97825700D01*
G75*
G02*
X156966360Y-97975700I-150000J0D01*
G01*
X155216360Y-97975700D01*
G75*
G02*
X155066360Y-97825700I0J150000D01*
G01*
G37*
G36*
G01*
X155066360Y-96555700D02*
X155066360Y-96255700D01*
G75*
G02*
X155216360Y-96105700I150000J0D01*
G01*
X156966360Y-96105700D01*
G75*
G02*
X157116360Y-96255700I0J-150000D01*
G01*
X157116360Y-96555700D01*
G75*
G02*
X156966360Y-96705700I-150000J0D01*
G01*
X155216360Y-96705700D01*
G75*
G02*
X155066360Y-96555700I0J150000D01*
G01*
G37*
%TD*%
D17*
%TO.C,U1*%
X132652000Y-86629000D03*
X133452000Y-86629000D03*
X134252000Y-86629000D03*
X135052000Y-86629000D03*
X135852000Y-86629000D03*
X136652000Y-86629000D03*
X137452000Y-86629000D03*
X138252000Y-86629000D03*
X139052000Y-86629000D03*
X139852000Y-86629000D03*
X140652000Y-86629000D03*
D18*
X142352000Y-88329000D03*
X142352000Y-89129000D03*
X142352000Y-89929000D03*
X142352000Y-90729000D03*
X142352000Y-91529000D03*
X142352000Y-92329000D03*
X142352000Y-93129000D03*
X142352000Y-93929000D03*
X142352000Y-94729000D03*
X142352000Y-95529000D03*
X142352000Y-96329000D03*
D17*
X140652000Y-98029000D03*
X139852000Y-98029000D03*
X139052000Y-98029000D03*
X138252000Y-98029000D03*
X137452000Y-98029000D03*
X136652000Y-98029000D03*
X135852000Y-98029000D03*
X135052000Y-98029000D03*
X134252000Y-98029000D03*
X133452000Y-98029000D03*
X132652000Y-98029000D03*
D18*
X130952000Y-96329000D03*
X130952000Y-95529000D03*
X130952000Y-94729000D03*
X130952000Y-93929000D03*
X130952000Y-93129000D03*
X130952000Y-92329000D03*
X130952000Y-91529000D03*
X130952000Y-90729000D03*
X130952000Y-89929000D03*
X130952000Y-89129000D03*
X130952000Y-88329000D03*
%TD*%
D19*
%TO.C,RN2*%
X173417600Y-105848000D03*
X173417600Y-105048000D03*
X173417600Y-104248000D03*
X173417600Y-103448000D03*
X171717600Y-105848000D03*
X171717600Y-103448000D03*
X171717600Y-105048000D03*
X171717600Y-104248000D03*
%TD*%
%TO.C,RN1*%
X173417600Y-98228000D03*
X173417600Y-97428000D03*
X173417600Y-96628000D03*
X173417600Y-95828000D03*
X171717600Y-98228000D03*
X171717600Y-95828000D03*
X171717600Y-97428000D03*
X171717600Y-96628000D03*
%TD*%
%TO.C,R2*%
G36*
G01*
X118022240Y-91920350D02*
X118022240Y-92432850D01*
G75*
G02*
X117803490Y-92651600I-218750J0D01*
G01*
X117365990Y-92651600D01*
G75*
G02*
X117147240Y-92432850I0J218750D01*
G01*
X117147240Y-91920350D01*
G75*
G02*
X117365990Y-91701600I218750J0D01*
G01*
X117803490Y-91701600D01*
G75*
G02*
X118022240Y-91920350I0J-218750D01*
G01*
G37*
G36*
G01*
X119597240Y-91920350D02*
X119597240Y-92432850D01*
G75*
G02*
X119378490Y-92651600I-218750J0D01*
G01*
X118940990Y-92651600D01*
G75*
G02*
X118722240Y-92432850I0J218750D01*
G01*
X118722240Y-91920350D01*
G75*
G02*
X118940990Y-91701600I218750J0D01*
G01*
X119378490Y-91701600D01*
G75*
G02*
X119597240Y-91920350I0J-218750D01*
G01*
G37*
%TD*%
%TO.C,R1*%
G36*
G01*
X118022240Y-94069190D02*
X118022240Y-94581690D01*
G75*
G02*
X117803490Y-94800440I-218750J0D01*
G01*
X117365990Y-94800440D01*
G75*
G02*
X117147240Y-94581690I0J218750D01*
G01*
X117147240Y-94069190D01*
G75*
G02*
X117365990Y-93850440I218750J0D01*
G01*
X117803490Y-93850440D01*
G75*
G02*
X118022240Y-94069190I0J-218750D01*
G01*
G37*
G36*
G01*
X119597240Y-94069190D02*
X119597240Y-94581690D01*
G75*
G02*
X119378490Y-94800440I-218750J0D01*
G01*
X118940990Y-94800440D01*
G75*
G02*
X118722240Y-94581690I0J218750D01*
G01*
X118722240Y-94069190D01*
G75*
G02*
X118940990Y-93850440I218750J0D01*
G01*
X119378490Y-93850440D01*
G75*
G02*
X119597240Y-94069190I0J-218750D01*
G01*
G37*
%TD*%
%TO.C,D6*%
G36*
G01*
X158061140Y-89410250D02*
X158061140Y-88897750D01*
G75*
G02*
X158279890Y-88679000I218750J0D01*
G01*
X158717390Y-88679000D01*
G75*
G02*
X158936140Y-88897750I0J-218750D01*
G01*
X158936140Y-89410250D01*
G75*
G02*
X158717390Y-89629000I-218750J0D01*
G01*
X158279890Y-89629000D01*
G75*
G02*
X158061140Y-89410250I0J218750D01*
G01*
G37*
G36*
G01*
X156486140Y-89410250D02*
X156486140Y-88897750D01*
G75*
G02*
X156704890Y-88679000I218750J0D01*
G01*
X157142390Y-88679000D01*
G75*
G02*
X157361140Y-88897750I0J-218750D01*
G01*
X157361140Y-89410250D01*
G75*
G02*
X157142390Y-89629000I-218750J0D01*
G01*
X156704890Y-89629000D01*
G75*
G02*
X156486140Y-89410250I0J218750D01*
G01*
G37*
%TD*%
%TO.C,Power*%
G36*
G01*
X158061140Y-92331250D02*
X158061140Y-91818750D01*
G75*
G02*
X158279890Y-91600000I218750J0D01*
G01*
X158717390Y-91600000D01*
G75*
G02*
X158936140Y-91818750I0J-218750D01*
G01*
X158936140Y-92331250D01*
G75*
G02*
X158717390Y-92550000I-218750J0D01*
G01*
X158279890Y-92550000D01*
G75*
G02*
X158061140Y-92331250I0J218750D01*
G01*
G37*
G36*
G01*
X156486140Y-92331250D02*
X156486140Y-91818750D01*
G75*
G02*
X156704890Y-91600000I218750J0D01*
G01*
X157142390Y-91600000D01*
G75*
G02*
X157361140Y-91818750I0J-218750D01*
G01*
X157361140Y-92331250D01*
G75*
G02*
X157142390Y-92550000I-218750J0D01*
G01*
X156704890Y-92550000D01*
G75*
G02*
X156486140Y-92331250I0J218750D01*
G01*
G37*
%TD*%
%TO.C,PB7*%
G36*
G01*
X180392820Y-107799850D02*
X180392820Y-107287350D01*
G75*
G02*
X180611570Y-107068600I218750J0D01*
G01*
X181049070Y-107068600D01*
G75*
G02*
X181267820Y-107287350I0J-218750D01*
G01*
X181267820Y-107799850D01*
G75*
G02*
X181049070Y-108018600I-218750J0D01*
G01*
X180611570Y-108018600D01*
G75*
G02*
X180392820Y-107799850I0J218750D01*
G01*
G37*
G36*
G01*
X178817820Y-107799850D02*
X178817820Y-107287350D01*
G75*
G02*
X179036570Y-107068600I218750J0D01*
G01*
X179474070Y-107068600D01*
G75*
G02*
X179692820Y-107287350I0J-218750D01*
G01*
X179692820Y-107799850D01*
G75*
G02*
X179474070Y-108018600I-218750J0D01*
G01*
X179036570Y-108018600D01*
G75*
G02*
X178817820Y-107799850I0J218750D01*
G01*
G37*
%TD*%
%TO.C,PB6*%
G36*
G01*
X180392820Y-105894850D02*
X180392820Y-105382350D01*
G75*
G02*
X180611570Y-105163600I218750J0D01*
G01*
X181049070Y-105163600D01*
G75*
G02*
X181267820Y-105382350I0J-218750D01*
G01*
X181267820Y-105894850D01*
G75*
G02*
X181049070Y-106113600I-218750J0D01*
G01*
X180611570Y-106113600D01*
G75*
G02*
X180392820Y-105894850I0J218750D01*
G01*
G37*
G36*
G01*
X178817820Y-105894850D02*
X178817820Y-105382350D01*
G75*
G02*
X179036570Y-105163600I218750J0D01*
G01*
X179474070Y-105163600D01*
G75*
G02*
X179692820Y-105382350I0J-218750D01*
G01*
X179692820Y-105894850D01*
G75*
G02*
X179474070Y-106113600I-218750J0D01*
G01*
X179036570Y-106113600D01*
G75*
G02*
X178817820Y-105894850I0J218750D01*
G01*
G37*
%TD*%
%TO.C,PB5*%
G36*
G01*
X180392820Y-103989850D02*
X180392820Y-103477350D01*
G75*
G02*
X180611570Y-103258600I218750J0D01*
G01*
X181049070Y-103258600D01*
G75*
G02*
X181267820Y-103477350I0J-218750D01*
G01*
X181267820Y-103989850D01*
G75*
G02*
X181049070Y-104208600I-218750J0D01*
G01*
X180611570Y-104208600D01*
G75*
G02*
X180392820Y-103989850I0J218750D01*
G01*
G37*
G36*
G01*
X178817820Y-103989850D02*
X178817820Y-103477350D01*
G75*
G02*
X179036570Y-103258600I218750J0D01*
G01*
X179474070Y-103258600D01*
G75*
G02*
X179692820Y-103477350I0J-218750D01*
G01*
X179692820Y-103989850D01*
G75*
G02*
X179474070Y-104208600I-218750J0D01*
G01*
X179036570Y-104208600D01*
G75*
G02*
X178817820Y-103989850I0J218750D01*
G01*
G37*
%TD*%
%TO.C,PB4*%
G36*
G01*
X180392820Y-102084850D02*
X180392820Y-101572350D01*
G75*
G02*
X180611570Y-101353600I218750J0D01*
G01*
X181049070Y-101353600D01*
G75*
G02*
X181267820Y-101572350I0J-218750D01*
G01*
X181267820Y-102084850D01*
G75*
G02*
X181049070Y-102303600I-218750J0D01*
G01*
X180611570Y-102303600D01*
G75*
G02*
X180392820Y-102084850I0J218750D01*
G01*
G37*
G36*
G01*
X178817820Y-102084850D02*
X178817820Y-101572350D01*
G75*
G02*
X179036570Y-101353600I218750J0D01*
G01*
X179474070Y-101353600D01*
G75*
G02*
X179692820Y-101572350I0J-218750D01*
G01*
X179692820Y-102084850D01*
G75*
G02*
X179474070Y-102303600I-218750J0D01*
G01*
X179036570Y-102303600D01*
G75*
G02*
X178817820Y-102084850I0J218750D01*
G01*
G37*
%TD*%
%TO.C,PB3*%
G36*
G01*
X180392820Y-100179850D02*
X180392820Y-99667350D01*
G75*
G02*
X180611570Y-99448600I218750J0D01*
G01*
X181049070Y-99448600D01*
G75*
G02*
X181267820Y-99667350I0J-218750D01*
G01*
X181267820Y-100179850D01*
G75*
G02*
X181049070Y-100398600I-218750J0D01*
G01*
X180611570Y-100398600D01*
G75*
G02*
X180392820Y-100179850I0J218750D01*
G01*
G37*
G36*
G01*
X178817820Y-100179850D02*
X178817820Y-99667350D01*
G75*
G02*
X179036570Y-99448600I218750J0D01*
G01*
X179474070Y-99448600D01*
G75*
G02*
X179692820Y-99667350I0J-218750D01*
G01*
X179692820Y-100179850D01*
G75*
G02*
X179474070Y-100398600I-218750J0D01*
G01*
X179036570Y-100398600D01*
G75*
G02*
X178817820Y-100179850I0J218750D01*
G01*
G37*
%TD*%
%TO.C,PB2*%
G36*
G01*
X180392820Y-98274850D02*
X180392820Y-97762350D01*
G75*
G02*
X180611570Y-97543600I218750J0D01*
G01*
X181049070Y-97543600D01*
G75*
G02*
X181267820Y-97762350I0J-218750D01*
G01*
X181267820Y-98274850D01*
G75*
G02*
X181049070Y-98493600I-218750J0D01*
G01*
X180611570Y-98493600D01*
G75*
G02*
X180392820Y-98274850I0J218750D01*
G01*
G37*
G36*
G01*
X178817820Y-98274850D02*
X178817820Y-97762350D01*
G75*
G02*
X179036570Y-97543600I218750J0D01*
G01*
X179474070Y-97543600D01*
G75*
G02*
X179692820Y-97762350I0J-218750D01*
G01*
X179692820Y-98274850D01*
G75*
G02*
X179474070Y-98493600I-218750J0D01*
G01*
X179036570Y-98493600D01*
G75*
G02*
X178817820Y-98274850I0J218750D01*
G01*
G37*
%TD*%
%TO.C,PB1*%
G36*
G01*
X180392820Y-96369850D02*
X180392820Y-95857350D01*
G75*
G02*
X180611570Y-95638600I218750J0D01*
G01*
X181049070Y-95638600D01*
G75*
G02*
X181267820Y-95857350I0J-218750D01*
G01*
X181267820Y-96369850D01*
G75*
G02*
X181049070Y-96588600I-218750J0D01*
G01*
X180611570Y-96588600D01*
G75*
G02*
X180392820Y-96369850I0J218750D01*
G01*
G37*
G36*
G01*
X178817820Y-96369850D02*
X178817820Y-95857350D01*
G75*
G02*
X179036570Y-95638600I218750J0D01*
G01*
X179474070Y-95638600D01*
G75*
G02*
X179692820Y-95857350I0J-218750D01*
G01*
X179692820Y-96369850D01*
G75*
G02*
X179474070Y-96588600I-218750J0D01*
G01*
X179036570Y-96588600D01*
G75*
G02*
X178817820Y-96369850I0J218750D01*
G01*
G37*
%TD*%
%TO.C,PB0*%
G36*
G01*
X180392820Y-94464850D02*
X180392820Y-93952350D01*
G75*
G02*
X180611570Y-93733600I218750J0D01*
G01*
X181049070Y-93733600D01*
G75*
G02*
X181267820Y-93952350I0J-218750D01*
G01*
X181267820Y-94464850D01*
G75*
G02*
X181049070Y-94683600I-218750J0D01*
G01*
X180611570Y-94683600D01*
G75*
G02*
X180392820Y-94464850I0J218750D01*
G01*
G37*
G36*
G01*
X178817820Y-94464850D02*
X178817820Y-93952350D01*
G75*
G02*
X179036570Y-93733600I218750J0D01*
G01*
X179474070Y-93733600D01*
G75*
G02*
X179692820Y-93952350I0J-218750D01*
G01*
X179692820Y-94464850D01*
G75*
G02*
X179474070Y-94683600I-218750J0D01*
G01*
X179036570Y-94683600D01*
G75*
G02*
X178817820Y-94464850I0J218750D01*
G01*
G37*
%TD*%
%TO.C,C4*%
G36*
G01*
X180420000Y-110146250D02*
X180420000Y-109633750D01*
G75*
G02*
X180638750Y-109415000I218750J0D01*
G01*
X181076250Y-109415000D01*
G75*
G02*
X181295000Y-109633750I0J-218750D01*
G01*
X181295000Y-110146250D01*
G75*
G02*
X181076250Y-110365000I-218750J0D01*
G01*
X180638750Y-110365000D01*
G75*
G02*
X180420000Y-110146250I0J218750D01*
G01*
G37*
G36*
G01*
X178845000Y-110146250D02*
X178845000Y-109633750D01*
G75*
G02*
X179063750Y-109415000I218750J0D01*
G01*
X179501250Y-109415000D01*
G75*
G02*
X179720000Y-109633750I0J-218750D01*
G01*
X179720000Y-110146250D01*
G75*
G02*
X179501250Y-110365000I-218750J0D01*
G01*
X179063750Y-110365000D01*
G75*
G02*
X178845000Y-110146250I0J218750D01*
G01*
G37*
%TD*%
%TO.C,C3*%
G36*
G01*
X127793000Y-92072750D02*
X127793000Y-92585250D01*
G75*
G02*
X127574250Y-92804000I-218750J0D01*
G01*
X127136750Y-92804000D01*
G75*
G02*
X126918000Y-92585250I0J218750D01*
G01*
X126918000Y-92072750D01*
G75*
G02*
X127136750Y-91854000I218750J0D01*
G01*
X127574250Y-91854000D01*
G75*
G02*
X127793000Y-92072750I0J-218750D01*
G01*
G37*
G36*
G01*
X129368000Y-92072750D02*
X129368000Y-92585250D01*
G75*
G02*
X129149250Y-92804000I-218750J0D01*
G01*
X128711750Y-92804000D01*
G75*
G02*
X128493000Y-92585250I0J218750D01*
G01*
X128493000Y-92072750D01*
G75*
G02*
X128711750Y-91854000I218750J0D01*
G01*
X129149250Y-91854000D01*
G75*
G02*
X129368000Y-92072750I0J-218750D01*
G01*
G37*
%TD*%
%TO.C,C1*%
G36*
G01*
X127793000Y-88643750D02*
X127793000Y-89156250D01*
G75*
G02*
X127574250Y-89375000I-218750J0D01*
G01*
X127136750Y-89375000D01*
G75*
G02*
X126918000Y-89156250I0J218750D01*
G01*
X126918000Y-88643750D01*
G75*
G02*
X127136750Y-88425000I218750J0D01*
G01*
X127574250Y-88425000D01*
G75*
G02*
X127793000Y-88643750I0J-218750D01*
G01*
G37*
G36*
G01*
X129368000Y-88643750D02*
X129368000Y-89156250D01*
G75*
G02*
X129149250Y-89375000I-218750J0D01*
G01*
X128711750Y-89375000D01*
G75*
G02*
X128493000Y-89156250I0J218750D01*
G01*
X128493000Y-88643750D01*
G75*
G02*
X128711750Y-88425000I218750J0D01*
G01*
X129149250Y-88425000D01*
G75*
G02*
X129368000Y-88643750I0J-218750D01*
G01*
G37*
%TD*%
M02*
