M48
; DRILL file {KiCad 5.1.6-1.fc32} date Fri Oct  2 18:06:43 2020
; FORMAT={-:-/ absolute / metric / decimal}
; #@! TF.CreationDate,2020-10-02T18:06:43+02:00
; #@! TF.GenerationSoftware,Kicad,Pcbnew,5.1.6-1.fc32
; #@! TF.FileFunction,Plated,1,2,PTH
FMAT,2
METRIC
T1C0.400
T2C0.500
T3C0.800
T4C1.000
T5C1.300
%
G90
G05
T1
X110.965Y-92.128
X110.965Y-94.376
X111.495Y-109.75
X112.806Y-105.443
X113.347Y-87.343
X113.395Y-89.851
X113.411Y-96.49
X114.572Y-114.534
X115.692Y-92.131
X115.733Y-94.356
X116.507Y-113.408
X116.556Y-84.602
X117.061Y-76.322
X117.185Y-104.894
X119.685Y-84.055
X119.738Y-80.622
X121.209Y-92.263
X121.227Y-104.357
X121.237Y-95.604
X121.615Y-113.424
X122.199Y-94.275
X123.043Y-114.938
X123.086Y-112.296
X123.769Y-98.384
X124.549Y-90.995
X124.694Y-86.627
X125.476Y-92.857
X126.164Y-116.505
X126.19Y-111.321
X126.889Y-117.207
X126.926Y-110.644
X128.245Y-91.255
X128.496Y-101.293
X129.366Y-95.154
X129.372Y-97.054
X130.602Y-85.875
X132.651Y-96.436
X132.652Y-92.374
X132.659Y-101.097
X132.659Y-105.288
X132.87Y-113.589
X133.382Y-106.292
X133.477Y-84.055
X133.477Y-99.517
X134.202Y-88.36
X134.345Y-106.021
X135.131Y-83.622
X135.215Y-88.347
X135.245Y-122.396
X135.621Y-107.519
X136.21Y-79.667
X136.422Y-106.921
X137.531Y-103.033
X137.622Y-91.722
X137.787Y-88.392
X137.973Y-109.607
X138.343Y-100.531
X138.734Y-107.822
X138.765Y-95.555
X138.796Y-94.475
X138.824Y-93.475
X138.909Y-92.479
X139.068Y-101.225
X139.249Y-81.253
X139.636Y-107.372
X139.799Y-100.541
X140.415Y-89.888
X140.455Y-90.887
X140.524Y-101.23
X140.528Y-106.921
X140.764Y-82.763
X140.797Y-96.581
X141.072Y-113.782
X141.249Y-100.482
X142.253Y-87.401
X142.433Y-102.326
X143.216Y-106.94
X143.736Y-94.732
X144.363Y-83.284
X144.471Y-94.054
X145.206Y-93.375
X145.938Y-101.859
X146.065Y-100.211
X146.218Y-106.921
X146.258Y-114.772
X146.821Y-99.455
X147.16Y-86.619
X147.218Y-106.921
X147.472Y-100.955
X147.615Y-98.809
X147.762Y-111.232
X147.876Y-92.926
X148.041Y-104.503
X148.218Y-106.921
X148.374Y-101.483
X148.51Y-92.173
X149.258Y-91.369
X149.268Y-102.174
X149.668Y-106.921
X149.758Y-79.477
X149.992Y-98.575
X150.564Y-88.334
X150.564Y-107.371
X151.392Y-113.338
X151.425Y-84.94
X151.461Y-107.821
X151.854Y-109.804
X152.079Y-84.184
X152.358Y-108.271
X152.733Y-83.428
X153.114Y-113.219
X153.388Y-82.671
X153.655Y-104.384
X154.042Y-81.915
X154.109Y-113.669
X154.117Y-92.852
X154.125Y-94.993
X154.696Y-81.159
X155.537Y-86.487
X156.04Y-110.764
X156.34Y-114.308
X157.386Y-90.627
X157.787Y-106.568
X157.945Y-98.237
X158.112Y-117.899
X158.84Y-112.507
X159.327Y-84.404
X159.342Y-105.291
X160.109Y-104.026
X160.299Y-84.094
X160.84Y-102.766
X161.272Y-83.785
X161.544Y-116.403
X161.567Y-101.443
X161.699Y-88.367
X161.862Y-112.503
X162.245Y-83.475
X162.293Y-100.228
X163.02Y-98.885
X163.558Y-97.714
X163.72Y-96.39
X164.153Y-115.6
X164.346Y-111.976
X164.894Y-80.584
X164.986Y-91.288
X167.444Y-83.072
X168.384Y-83.413
X168.605Y-100.929
X169.324Y-83.753
X170.264Y-84.094
X172.408Y-80.67
X172.524Y-113.695
X177.81Y-109.941
T3
X169.712Y-87.122
X174.712Y-87.122
T4
X113.411Y-101.092
X113.411Y-103.632
X115.951Y-101.092
X115.951Y-103.632
X118.491Y-101.092
X118.491Y-103.632
X153.035Y-74.93
X155.575Y-74.93
X158.115Y-74.93
X160.655Y-74.93
X163.195Y-74.93
X165.735Y-74.93
X168.275Y-74.93
X170.815Y-74.93
X173.355Y-74.93
X175.895Y-74.93
X107.315Y-125.73
X109.855Y-125.73
X112.395Y-125.73
X114.935Y-125.73
X117.475Y-125.73
X120.015Y-125.73
X122.555Y-125.73
X125.095Y-125.73
X127.635Y-125.73
X130.175Y-125.73
X132.715Y-125.73
X135.255Y-125.73
X137.795Y-125.73
X140.335Y-125.73
X142.875Y-125.73
X145.415Y-125.73
X147.955Y-125.73
X150.495Y-125.73
X153.035Y-125.73
X155.575Y-125.73
X158.115Y-125.73
X160.655Y-125.73
X163.195Y-125.73
X165.735Y-125.73
X168.275Y-125.73
X170.815Y-125.73
X173.355Y-125.73
X175.895Y-125.73
X178.435Y-125.73
X180.975Y-125.73
T5
X141.862Y-79.771
X144.362Y-74.771
X146.862Y-79.771
X127.892Y-79.771
X130.392Y-74.771
X132.892Y-79.771
T2
G00X106.288Y-90.276
M15
G01X106.988Y-90.276
M16
G05
G00X106.288Y-96.876
M15
G01X106.988Y-96.876
M16
G05
T0
M30
