%TF.GenerationSoftware,KiCad,Pcbnew,(5.1.6)-1*%
%TF.CreationDate,2020-09-01T01:33:34+02:00*%
%TF.ProjectId,microFSETv3final,6d696372-6f46-4534-9554-763366696e61,rev?*%
%TF.SameCoordinates,Original*%
%TF.FileFunction,Soldermask,Bot*%
%TF.FilePolarity,Negative*%
%FSLAX46Y46*%
G04 Gerber Fmt 4.6, Leading zero omitted, Abs format (unit mm)*
G04 Created by KiCad (PCBNEW (5.1.6)-1) date 2020-09-01 01:33:34*
%MOMM*%
%LPD*%
G01*
G04 APERTURE LIST*
%ADD10O,1.700000X1.000000*%
%ADD11C,1.700000*%
%ADD12C,2.440000*%
%ADD13O,1.800000X1.800000*%
%ADD14R,1.800000X1.800000*%
G04 APERTURE END LIST*
D10*
%TO.C,J1*%
X106638240Y-96876140D03*
X106638240Y-90276140D03*
%TD*%
D11*
%TO.C,BZ1*%
X168950000Y-81915000D03*
X173950000Y-81915000D03*
%TD*%
D12*
%TO.C,RV2*%
X141861540Y-75453240D03*
X144361540Y-70453240D03*
X146861540Y-75453240D03*
%TD*%
%TO.C,RV1*%
X127891540Y-75453240D03*
X130391540Y-70453240D03*
X132891540Y-75453240D03*
%TD*%
D13*
%TO.C,J3*%
X153660000Y-69850000D03*
X156200000Y-69850000D03*
X158740000Y-69850000D03*
X161280000Y-69850000D03*
X163820000Y-69850000D03*
X166360000Y-69850000D03*
X168900000Y-69850000D03*
X171440000Y-69850000D03*
X173980000Y-69850000D03*
D14*
X176520000Y-69850000D03*
%TD*%
D13*
%TO.C,J2*%
X181610000Y-125730000D03*
X179070000Y-125730000D03*
X176530000Y-125730000D03*
X173990000Y-125730000D03*
X171450000Y-125730000D03*
X168910000Y-125730000D03*
X166370000Y-125730000D03*
X163830000Y-125730000D03*
X161290000Y-125730000D03*
X158750000Y-125730000D03*
X156210000Y-125730000D03*
X153670000Y-125730000D03*
X151130000Y-125730000D03*
X148590000Y-125730000D03*
X146050000Y-125730000D03*
X143510000Y-125730000D03*
X140970000Y-125730000D03*
X138430000Y-125730000D03*
X135890000Y-125730000D03*
X133350000Y-125730000D03*
X130810000Y-125730000D03*
X128270000Y-125730000D03*
X125730000Y-125730000D03*
X123190000Y-125730000D03*
X120650000Y-125730000D03*
X118110000Y-125730000D03*
X115570000Y-125730000D03*
X113030000Y-125730000D03*
X110490000Y-125730000D03*
D14*
X107950000Y-125730000D03*
%TD*%
M02*
