%TF.GenerationSoftware,KiCad,Pcbnew,(5.1.6)-1*%
%TF.CreationDate,2020-09-01T01:33:33+02:00*%
%TF.ProjectId,microFSETv3final,6d696372-6f46-4534-9554-763366696e61,rev?*%
%TF.SameCoordinates,Original*%
%TF.FileFunction,Paste,Top*%
%TF.FilePolarity,Positive*%
%FSLAX46Y46*%
G04 Gerber Fmt 4.6, Leading zero omitted, Abs format (unit mm)*
G04 Created by KiCad (PCBNEW (5.1.6)-1) date 2020-09-01 01:33:33*
%MOMM*%
%LPD*%
G01*
G04 APERTURE LIST*
%ADD10R,1.000000X1.550000*%
%ADD11R,1.550000X1.000000*%
%ADD12R,1.400000X1.600000*%
%ADD13R,1.900000X1.900000*%
%ADD14R,1.350000X0.400000*%
%ADD15R,0.700000X0.600000*%
%ADD16R,0.400000X1.900000*%
%ADD17R,0.550000X1.500000*%
%ADD18R,1.500000X0.550000*%
%ADD19R,0.900000X0.400000*%
%ADD20R,0.800000X0.900000*%
G04 APERTURE END LIST*
D10*
%TO.C,SW9*%
X176225000Y-111675000D03*
X176225000Y-116925000D03*
X173025000Y-111675000D03*
X173025000Y-116925000D03*
%TD*%
%TO.C,SW8*%
X167970000Y-111675000D03*
X167970000Y-116925000D03*
X164770000Y-111675000D03*
X164770000Y-116925000D03*
%TD*%
%TO.C,SW7*%
X159715000Y-111675000D03*
X159715000Y-116925000D03*
X156515000Y-111675000D03*
X156515000Y-116925000D03*
%TD*%
%TO.C,SW6*%
X151460000Y-111675000D03*
X151460000Y-116925000D03*
X148260000Y-111675000D03*
X148260000Y-116925000D03*
%TD*%
%TO.C,SW5*%
X143205000Y-111675000D03*
X143205000Y-116925000D03*
X140005000Y-111675000D03*
X140005000Y-116925000D03*
%TD*%
%TO.C,SW4*%
X134950000Y-111675000D03*
X134950000Y-116925000D03*
X131750000Y-111675000D03*
X131750000Y-116925000D03*
%TD*%
%TO.C,SW3*%
X126695000Y-111675000D03*
X126695000Y-116925000D03*
X123495000Y-111675000D03*
X123495000Y-116925000D03*
%TD*%
%TO.C,SW2*%
X118440000Y-111675000D03*
X118440000Y-116925000D03*
X115240000Y-111675000D03*
X115240000Y-116925000D03*
%TD*%
D11*
%TO.C,SW1*%
X119735000Y-75090000D03*
X114485000Y-75090000D03*
X119735000Y-71890000D03*
X114485000Y-71890000D03*
%TD*%
D12*
%TO.C,J1*%
X109088240Y-90376140D03*
X109088240Y-96776140D03*
D13*
X106638240Y-92376140D03*
D14*
X109313240Y-93576140D03*
X109313240Y-94226140D03*
X109313240Y-94876140D03*
X109313240Y-92276140D03*
X109313240Y-92926140D03*
D13*
X106638240Y-94776140D03*
%TD*%
D15*
%TO.C,D1*%
X112014000Y-89851000D03*
X112014000Y-91251000D03*
%TD*%
D16*
%TO.C,Y1*%
X135071000Y-98729800D03*
X136271000Y-98729800D03*
X137471000Y-98729800D03*
%TD*%
%TO.C,R3*%
G36*
G01*
X116270520Y-85107490D02*
X116270520Y-84594990D01*
G75*
G02*
X116489270Y-84376240I218750J0D01*
G01*
X116926770Y-84376240D01*
G75*
G02*
X117145520Y-84594990I0J-218750D01*
G01*
X117145520Y-85107490D01*
G75*
G02*
X116926770Y-85326240I-218750J0D01*
G01*
X116489270Y-85326240D01*
G75*
G02*
X116270520Y-85107490I0J218750D01*
G01*
G37*
G36*
G01*
X114695520Y-85107490D02*
X114695520Y-84594990D01*
G75*
G02*
X114914270Y-84376240I218750J0D01*
G01*
X115351770Y-84376240D01*
G75*
G02*
X115570520Y-84594990I0J-218750D01*
G01*
X115570520Y-85107490D01*
G75*
G02*
X115351770Y-85326240I-218750J0D01*
G01*
X114914270Y-85326240D01*
G75*
G02*
X114695520Y-85107490I0J218750D01*
G01*
G37*
%TD*%
%TO.C,Q2*%
G36*
G01*
X117330520Y-82936240D02*
X117330520Y-81686240D01*
G75*
G02*
X117580520Y-81436240I250000J0D01*
G01*
X118330520Y-81436240D01*
G75*
G02*
X118580520Y-81686240I0J-250000D01*
G01*
X118580520Y-82936240D01*
G75*
G02*
X118330520Y-83186240I-250000J0D01*
G01*
X117580520Y-83186240D01*
G75*
G02*
X117330520Y-82936240I0J250000D01*
G01*
G37*
G36*
G01*
X114530520Y-82936240D02*
X114530520Y-81686240D01*
G75*
G02*
X114780520Y-81436240I250000J0D01*
G01*
X115530520Y-81436240D01*
G75*
G02*
X115780520Y-81686240I0J-250000D01*
G01*
X115780520Y-82936240D01*
G75*
G02*
X115530520Y-83186240I-250000J0D01*
G01*
X114780520Y-83186240D01*
G75*
G02*
X114530520Y-82936240I0J250000D01*
G01*
G37*
%TD*%
%TO.C,U2*%
G36*
G01*
X164366360Y-94015700D02*
X164366360Y-93715700D01*
G75*
G02*
X164516360Y-93565700I150000J0D01*
G01*
X166266360Y-93565700D01*
G75*
G02*
X166416360Y-93715700I0J-150000D01*
G01*
X166416360Y-94015700D01*
G75*
G02*
X166266360Y-94165700I-150000J0D01*
G01*
X164516360Y-94165700D01*
G75*
G02*
X164366360Y-94015700I0J150000D01*
G01*
G37*
G36*
G01*
X164366360Y-95285700D02*
X164366360Y-94985700D01*
G75*
G02*
X164516360Y-94835700I150000J0D01*
G01*
X166266360Y-94835700D01*
G75*
G02*
X166416360Y-94985700I0J-150000D01*
G01*
X166416360Y-95285700D01*
G75*
G02*
X166266360Y-95435700I-150000J0D01*
G01*
X164516360Y-95435700D01*
G75*
G02*
X164366360Y-95285700I0J150000D01*
G01*
G37*
G36*
G01*
X164366360Y-96555700D02*
X164366360Y-96255700D01*
G75*
G02*
X164516360Y-96105700I150000J0D01*
G01*
X166266360Y-96105700D01*
G75*
G02*
X166416360Y-96255700I0J-150000D01*
G01*
X166416360Y-96555700D01*
G75*
G02*
X166266360Y-96705700I-150000J0D01*
G01*
X164516360Y-96705700D01*
G75*
G02*
X164366360Y-96555700I0J150000D01*
G01*
G37*
G36*
G01*
X164366360Y-97825700D02*
X164366360Y-97525700D01*
G75*
G02*
X164516360Y-97375700I150000J0D01*
G01*
X166266360Y-97375700D01*
G75*
G02*
X166416360Y-97525700I0J-150000D01*
G01*
X166416360Y-97825700D01*
G75*
G02*
X166266360Y-97975700I-150000J0D01*
G01*
X164516360Y-97975700D01*
G75*
G02*
X164366360Y-97825700I0J150000D01*
G01*
G37*
G36*
G01*
X164366360Y-99095700D02*
X164366360Y-98795700D01*
G75*
G02*
X164516360Y-98645700I150000J0D01*
G01*
X166266360Y-98645700D01*
G75*
G02*
X166416360Y-98795700I0J-150000D01*
G01*
X166416360Y-99095700D01*
G75*
G02*
X166266360Y-99245700I-150000J0D01*
G01*
X164516360Y-99245700D01*
G75*
G02*
X164366360Y-99095700I0J150000D01*
G01*
G37*
G36*
G01*
X164366360Y-100365700D02*
X164366360Y-100065700D01*
G75*
G02*
X164516360Y-99915700I150000J0D01*
G01*
X166266360Y-99915700D01*
G75*
G02*
X166416360Y-100065700I0J-150000D01*
G01*
X166416360Y-100365700D01*
G75*
G02*
X166266360Y-100515700I-150000J0D01*
G01*
X164516360Y-100515700D01*
G75*
G02*
X164366360Y-100365700I0J150000D01*
G01*
G37*
G36*
G01*
X164366360Y-101635700D02*
X164366360Y-101335700D01*
G75*
G02*
X164516360Y-101185700I150000J0D01*
G01*
X166266360Y-101185700D01*
G75*
G02*
X166416360Y-101335700I0J-150000D01*
G01*
X166416360Y-101635700D01*
G75*
G02*
X166266360Y-101785700I-150000J0D01*
G01*
X164516360Y-101785700D01*
G75*
G02*
X164366360Y-101635700I0J150000D01*
G01*
G37*
G36*
G01*
X164366360Y-102905700D02*
X164366360Y-102605700D01*
G75*
G02*
X164516360Y-102455700I150000J0D01*
G01*
X166266360Y-102455700D01*
G75*
G02*
X166416360Y-102605700I0J-150000D01*
G01*
X166416360Y-102905700D01*
G75*
G02*
X166266360Y-103055700I-150000J0D01*
G01*
X164516360Y-103055700D01*
G75*
G02*
X164366360Y-102905700I0J150000D01*
G01*
G37*
G36*
G01*
X164366360Y-104175700D02*
X164366360Y-103875700D01*
G75*
G02*
X164516360Y-103725700I150000J0D01*
G01*
X166266360Y-103725700D01*
G75*
G02*
X166416360Y-103875700I0J-150000D01*
G01*
X166416360Y-104175700D01*
G75*
G02*
X166266360Y-104325700I-150000J0D01*
G01*
X164516360Y-104325700D01*
G75*
G02*
X164366360Y-104175700I0J150000D01*
G01*
G37*
G36*
G01*
X155066360Y-104175700D02*
X155066360Y-103875700D01*
G75*
G02*
X155216360Y-103725700I150000J0D01*
G01*
X156966360Y-103725700D01*
G75*
G02*
X157116360Y-103875700I0J-150000D01*
G01*
X157116360Y-104175700D01*
G75*
G02*
X156966360Y-104325700I-150000J0D01*
G01*
X155216360Y-104325700D01*
G75*
G02*
X155066360Y-104175700I0J150000D01*
G01*
G37*
G36*
G01*
X155066360Y-102905700D02*
X155066360Y-102605700D01*
G75*
G02*
X155216360Y-102455700I150000J0D01*
G01*
X156966360Y-102455700D01*
G75*
G02*
X157116360Y-102605700I0J-150000D01*
G01*
X157116360Y-102905700D01*
G75*
G02*
X156966360Y-103055700I-150000J0D01*
G01*
X155216360Y-103055700D01*
G75*
G02*
X155066360Y-102905700I0J150000D01*
G01*
G37*
G36*
G01*
X155066360Y-101635700D02*
X155066360Y-101335700D01*
G75*
G02*
X155216360Y-101185700I150000J0D01*
G01*
X156966360Y-101185700D01*
G75*
G02*
X157116360Y-101335700I0J-150000D01*
G01*
X157116360Y-101635700D01*
G75*
G02*
X156966360Y-101785700I-150000J0D01*
G01*
X155216360Y-101785700D01*
G75*
G02*
X155066360Y-101635700I0J150000D01*
G01*
G37*
G36*
G01*
X155066360Y-100365700D02*
X155066360Y-100065700D01*
G75*
G02*
X155216360Y-99915700I150000J0D01*
G01*
X156966360Y-99915700D01*
G75*
G02*
X157116360Y-100065700I0J-150000D01*
G01*
X157116360Y-100365700D01*
G75*
G02*
X156966360Y-100515700I-150000J0D01*
G01*
X155216360Y-100515700D01*
G75*
G02*
X155066360Y-100365700I0J150000D01*
G01*
G37*
G36*
G01*
X155066360Y-99095700D02*
X155066360Y-98795700D01*
G75*
G02*
X155216360Y-98645700I150000J0D01*
G01*
X156966360Y-98645700D01*
G75*
G02*
X157116360Y-98795700I0J-150000D01*
G01*
X157116360Y-99095700D01*
G75*
G02*
X156966360Y-99245700I-150000J0D01*
G01*
X155216360Y-99245700D01*
G75*
G02*
X155066360Y-99095700I0J150000D01*
G01*
G37*
G36*
G01*
X155066360Y-97825700D02*
X155066360Y-97525700D01*
G75*
G02*
X155216360Y-97375700I150000J0D01*
G01*
X156966360Y-97375700D01*
G75*
G02*
X157116360Y-97525700I0J-150000D01*
G01*
X157116360Y-97825700D01*
G75*
G02*
X156966360Y-97975700I-150000J0D01*
G01*
X155216360Y-97975700D01*
G75*
G02*
X155066360Y-97825700I0J150000D01*
G01*
G37*
G36*
G01*
X155066360Y-96555700D02*
X155066360Y-96255700D01*
G75*
G02*
X155216360Y-96105700I150000J0D01*
G01*
X156966360Y-96105700D01*
G75*
G02*
X157116360Y-96255700I0J-150000D01*
G01*
X157116360Y-96555700D01*
G75*
G02*
X156966360Y-96705700I-150000J0D01*
G01*
X155216360Y-96705700D01*
G75*
G02*
X155066360Y-96555700I0J150000D01*
G01*
G37*
G36*
G01*
X155066360Y-95285700D02*
X155066360Y-94985700D01*
G75*
G02*
X155216360Y-94835700I150000J0D01*
G01*
X156966360Y-94835700D01*
G75*
G02*
X157116360Y-94985700I0J-150000D01*
G01*
X157116360Y-95285700D01*
G75*
G02*
X156966360Y-95435700I-150000J0D01*
G01*
X155216360Y-95435700D01*
G75*
G02*
X155066360Y-95285700I0J150000D01*
G01*
G37*
G36*
G01*
X155066360Y-94015700D02*
X155066360Y-93715700D01*
G75*
G02*
X155216360Y-93565700I150000J0D01*
G01*
X156966360Y-93565700D01*
G75*
G02*
X157116360Y-93715700I0J-150000D01*
G01*
X157116360Y-94015700D01*
G75*
G02*
X156966360Y-94165700I-150000J0D01*
G01*
X155216360Y-94165700D01*
G75*
G02*
X155066360Y-94015700I0J150000D01*
G01*
G37*
%TD*%
D17*
%TO.C,U1*%
X132652000Y-84089000D03*
X133452000Y-84089000D03*
X134252000Y-84089000D03*
X135052000Y-84089000D03*
X135852000Y-84089000D03*
X136652000Y-84089000D03*
X137452000Y-84089000D03*
X138252000Y-84089000D03*
X139052000Y-84089000D03*
X139852000Y-84089000D03*
X140652000Y-84089000D03*
D18*
X142352000Y-85789000D03*
X142352000Y-86589000D03*
X142352000Y-87389000D03*
X142352000Y-88189000D03*
X142352000Y-88989000D03*
X142352000Y-89789000D03*
X142352000Y-90589000D03*
X142352000Y-91389000D03*
X142352000Y-92189000D03*
X142352000Y-92989000D03*
X142352000Y-93789000D03*
D17*
X140652000Y-95489000D03*
X139852000Y-95489000D03*
X139052000Y-95489000D03*
X138252000Y-95489000D03*
X137452000Y-95489000D03*
X136652000Y-95489000D03*
X135852000Y-95489000D03*
X135052000Y-95489000D03*
X134252000Y-95489000D03*
X133452000Y-95489000D03*
X132652000Y-95489000D03*
D18*
X130952000Y-93789000D03*
X130952000Y-92989000D03*
X130952000Y-92189000D03*
X130952000Y-91389000D03*
X130952000Y-90589000D03*
X130952000Y-89789000D03*
X130952000Y-88989000D03*
X130952000Y-88189000D03*
X130952000Y-87389000D03*
X130952000Y-86589000D03*
X130952000Y-85789000D03*
%TD*%
D19*
%TO.C,RN3*%
X158230000Y-88320000D03*
X158230000Y-87520000D03*
X158230000Y-86720000D03*
X158230000Y-85920000D03*
X156530000Y-88320000D03*
X156530000Y-85920000D03*
X156530000Y-87520000D03*
X156530000Y-86720000D03*
%TD*%
%TO.C,RN2*%
X174459000Y-103308000D03*
X174459000Y-102508000D03*
X174459000Y-101708000D03*
X174459000Y-100908000D03*
X172759000Y-103308000D03*
X172759000Y-100908000D03*
X172759000Y-102508000D03*
X172759000Y-101708000D03*
%TD*%
%TO.C,RN1*%
X174459000Y-95688000D03*
X174459000Y-94888000D03*
X174459000Y-94088000D03*
X174459000Y-93288000D03*
X172759000Y-95688000D03*
X172759000Y-93288000D03*
X172759000Y-94888000D03*
X172759000Y-94088000D03*
%TD*%
%TO.C,R2*%
G36*
G01*
X118022240Y-91920350D02*
X118022240Y-92432850D01*
G75*
G02*
X117803490Y-92651600I-218750J0D01*
G01*
X117365990Y-92651600D01*
G75*
G02*
X117147240Y-92432850I0J218750D01*
G01*
X117147240Y-91920350D01*
G75*
G02*
X117365990Y-91701600I218750J0D01*
G01*
X117803490Y-91701600D01*
G75*
G02*
X118022240Y-91920350I0J-218750D01*
G01*
G37*
G36*
G01*
X119597240Y-91920350D02*
X119597240Y-92432850D01*
G75*
G02*
X119378490Y-92651600I-218750J0D01*
G01*
X118940990Y-92651600D01*
G75*
G02*
X118722240Y-92432850I0J218750D01*
G01*
X118722240Y-91920350D01*
G75*
G02*
X118940990Y-91701600I218750J0D01*
G01*
X119378490Y-91701600D01*
G75*
G02*
X119597240Y-91920350I0J-218750D01*
G01*
G37*
%TD*%
%TO.C,R1*%
G36*
G01*
X118022240Y-94069190D02*
X118022240Y-94581690D01*
G75*
G02*
X117803490Y-94800440I-218750J0D01*
G01*
X117365990Y-94800440D01*
G75*
G02*
X117147240Y-94581690I0J218750D01*
G01*
X117147240Y-94069190D01*
G75*
G02*
X117365990Y-93850440I218750J0D01*
G01*
X117803490Y-93850440D01*
G75*
G02*
X118022240Y-94069190I0J-218750D01*
G01*
G37*
G36*
G01*
X119597240Y-94069190D02*
X119597240Y-94581690D01*
G75*
G02*
X119378490Y-94800440I-218750J0D01*
G01*
X118940990Y-94800440D01*
G75*
G02*
X118722240Y-94581690I0J218750D01*
G01*
X118722240Y-94069190D01*
G75*
G02*
X118940990Y-93850440I218750J0D01*
G01*
X119378490Y-93850440D01*
G75*
G02*
X119597240Y-94069190I0J-218750D01*
G01*
G37*
%TD*%
D20*
%TO.C,Q1*%
X152730000Y-90320000D03*
X151780000Y-88320000D03*
X153680000Y-88320000D03*
%TD*%
%TO.C,D11*%
G36*
G01*
X156816250Y-75300000D02*
X156303750Y-75300000D01*
G75*
G02*
X156085000Y-75081250I0J218750D01*
G01*
X156085000Y-74643750D01*
G75*
G02*
X156303750Y-74425000I218750J0D01*
G01*
X156816250Y-74425000D01*
G75*
G02*
X157035000Y-74643750I0J-218750D01*
G01*
X157035000Y-75081250D01*
G75*
G02*
X156816250Y-75300000I-218750J0D01*
G01*
G37*
G36*
G01*
X156816250Y-76875000D02*
X156303750Y-76875000D01*
G75*
G02*
X156085000Y-76656250I0J218750D01*
G01*
X156085000Y-76218750D01*
G75*
G02*
X156303750Y-76000000I218750J0D01*
G01*
X156816250Y-76000000D01*
G75*
G02*
X157035000Y-76218750I0J-218750D01*
G01*
X157035000Y-76656250D01*
G75*
G02*
X156816250Y-76875000I-218750J0D01*
G01*
G37*
%TD*%
%TO.C,D10*%
G36*
G01*
X159768250Y-75215000D02*
X159255750Y-75215000D01*
G75*
G02*
X159037000Y-74996250I0J218750D01*
G01*
X159037000Y-74558750D01*
G75*
G02*
X159255750Y-74340000I218750J0D01*
G01*
X159768250Y-74340000D01*
G75*
G02*
X159987000Y-74558750I0J-218750D01*
G01*
X159987000Y-74996250D01*
G75*
G02*
X159768250Y-75215000I-218750J0D01*
G01*
G37*
G36*
G01*
X159768250Y-76790000D02*
X159255750Y-76790000D01*
G75*
G02*
X159037000Y-76571250I0J218750D01*
G01*
X159037000Y-76133750D01*
G75*
G02*
X159255750Y-75915000I218750J0D01*
G01*
X159768250Y-75915000D01*
G75*
G02*
X159987000Y-76133750I0J-218750D01*
G01*
X159987000Y-76571250D01*
G75*
G02*
X159768250Y-76790000I-218750J0D01*
G01*
G37*
%TD*%
%TO.C,D9*%
G36*
G01*
X180392820Y-105259850D02*
X180392820Y-104747350D01*
G75*
G02*
X180611570Y-104528600I218750J0D01*
G01*
X181049070Y-104528600D01*
G75*
G02*
X181267820Y-104747350I0J-218750D01*
G01*
X181267820Y-105259850D01*
G75*
G02*
X181049070Y-105478600I-218750J0D01*
G01*
X180611570Y-105478600D01*
G75*
G02*
X180392820Y-105259850I0J218750D01*
G01*
G37*
G36*
G01*
X178817820Y-105259850D02*
X178817820Y-104747350D01*
G75*
G02*
X179036570Y-104528600I218750J0D01*
G01*
X179474070Y-104528600D01*
G75*
G02*
X179692820Y-104747350I0J-218750D01*
G01*
X179692820Y-105259850D01*
G75*
G02*
X179474070Y-105478600I-218750J0D01*
G01*
X179036570Y-105478600D01*
G75*
G02*
X178817820Y-105259850I0J218750D01*
G01*
G37*
%TD*%
%TO.C,D8*%
G36*
G01*
X180392820Y-103354850D02*
X180392820Y-102842350D01*
G75*
G02*
X180611570Y-102623600I218750J0D01*
G01*
X181049070Y-102623600D01*
G75*
G02*
X181267820Y-102842350I0J-218750D01*
G01*
X181267820Y-103354850D01*
G75*
G02*
X181049070Y-103573600I-218750J0D01*
G01*
X180611570Y-103573600D01*
G75*
G02*
X180392820Y-103354850I0J218750D01*
G01*
G37*
G36*
G01*
X178817820Y-103354850D02*
X178817820Y-102842350D01*
G75*
G02*
X179036570Y-102623600I218750J0D01*
G01*
X179474070Y-102623600D01*
G75*
G02*
X179692820Y-102842350I0J-218750D01*
G01*
X179692820Y-103354850D01*
G75*
G02*
X179474070Y-103573600I-218750J0D01*
G01*
X179036570Y-103573600D01*
G75*
G02*
X178817820Y-103354850I0J218750D01*
G01*
G37*
%TD*%
%TO.C,D7*%
G36*
G01*
X180392820Y-101449850D02*
X180392820Y-100937350D01*
G75*
G02*
X180611570Y-100718600I218750J0D01*
G01*
X181049070Y-100718600D01*
G75*
G02*
X181267820Y-100937350I0J-218750D01*
G01*
X181267820Y-101449850D01*
G75*
G02*
X181049070Y-101668600I-218750J0D01*
G01*
X180611570Y-101668600D01*
G75*
G02*
X180392820Y-101449850I0J218750D01*
G01*
G37*
G36*
G01*
X178817820Y-101449850D02*
X178817820Y-100937350D01*
G75*
G02*
X179036570Y-100718600I218750J0D01*
G01*
X179474070Y-100718600D01*
G75*
G02*
X179692820Y-100937350I0J-218750D01*
G01*
X179692820Y-101449850D01*
G75*
G02*
X179474070Y-101668600I-218750J0D01*
G01*
X179036570Y-101668600D01*
G75*
G02*
X178817820Y-101449850I0J218750D01*
G01*
G37*
%TD*%
%TO.C,D6*%
G36*
G01*
X180392820Y-99544850D02*
X180392820Y-99032350D01*
G75*
G02*
X180611570Y-98813600I218750J0D01*
G01*
X181049070Y-98813600D01*
G75*
G02*
X181267820Y-99032350I0J-218750D01*
G01*
X181267820Y-99544850D01*
G75*
G02*
X181049070Y-99763600I-218750J0D01*
G01*
X180611570Y-99763600D01*
G75*
G02*
X180392820Y-99544850I0J218750D01*
G01*
G37*
G36*
G01*
X178817820Y-99544850D02*
X178817820Y-99032350D01*
G75*
G02*
X179036570Y-98813600I218750J0D01*
G01*
X179474070Y-98813600D01*
G75*
G02*
X179692820Y-99032350I0J-218750D01*
G01*
X179692820Y-99544850D01*
G75*
G02*
X179474070Y-99763600I-218750J0D01*
G01*
X179036570Y-99763600D01*
G75*
G02*
X178817820Y-99544850I0J218750D01*
G01*
G37*
%TD*%
%TO.C,D5*%
G36*
G01*
X180392820Y-97639850D02*
X180392820Y-97127350D01*
G75*
G02*
X180611570Y-96908600I218750J0D01*
G01*
X181049070Y-96908600D01*
G75*
G02*
X181267820Y-97127350I0J-218750D01*
G01*
X181267820Y-97639850D01*
G75*
G02*
X181049070Y-97858600I-218750J0D01*
G01*
X180611570Y-97858600D01*
G75*
G02*
X180392820Y-97639850I0J218750D01*
G01*
G37*
G36*
G01*
X178817820Y-97639850D02*
X178817820Y-97127350D01*
G75*
G02*
X179036570Y-96908600I218750J0D01*
G01*
X179474070Y-96908600D01*
G75*
G02*
X179692820Y-97127350I0J-218750D01*
G01*
X179692820Y-97639850D01*
G75*
G02*
X179474070Y-97858600I-218750J0D01*
G01*
X179036570Y-97858600D01*
G75*
G02*
X178817820Y-97639850I0J218750D01*
G01*
G37*
%TD*%
%TO.C,D4*%
G36*
G01*
X180392820Y-95734850D02*
X180392820Y-95222350D01*
G75*
G02*
X180611570Y-95003600I218750J0D01*
G01*
X181049070Y-95003600D01*
G75*
G02*
X181267820Y-95222350I0J-218750D01*
G01*
X181267820Y-95734850D01*
G75*
G02*
X181049070Y-95953600I-218750J0D01*
G01*
X180611570Y-95953600D01*
G75*
G02*
X180392820Y-95734850I0J218750D01*
G01*
G37*
G36*
G01*
X178817820Y-95734850D02*
X178817820Y-95222350D01*
G75*
G02*
X179036570Y-95003600I218750J0D01*
G01*
X179474070Y-95003600D01*
G75*
G02*
X179692820Y-95222350I0J-218750D01*
G01*
X179692820Y-95734850D01*
G75*
G02*
X179474070Y-95953600I-218750J0D01*
G01*
X179036570Y-95953600D01*
G75*
G02*
X178817820Y-95734850I0J218750D01*
G01*
G37*
%TD*%
%TO.C,D3*%
G36*
G01*
X180392820Y-93829850D02*
X180392820Y-93317350D01*
G75*
G02*
X180611570Y-93098600I218750J0D01*
G01*
X181049070Y-93098600D01*
G75*
G02*
X181267820Y-93317350I0J-218750D01*
G01*
X181267820Y-93829850D01*
G75*
G02*
X181049070Y-94048600I-218750J0D01*
G01*
X180611570Y-94048600D01*
G75*
G02*
X180392820Y-93829850I0J218750D01*
G01*
G37*
G36*
G01*
X178817820Y-93829850D02*
X178817820Y-93317350D01*
G75*
G02*
X179036570Y-93098600I218750J0D01*
G01*
X179474070Y-93098600D01*
G75*
G02*
X179692820Y-93317350I0J-218750D01*
G01*
X179692820Y-93829850D01*
G75*
G02*
X179474070Y-94048600I-218750J0D01*
G01*
X179036570Y-94048600D01*
G75*
G02*
X178817820Y-93829850I0J218750D01*
G01*
G37*
%TD*%
%TO.C,D2*%
G36*
G01*
X180392820Y-91924850D02*
X180392820Y-91412350D01*
G75*
G02*
X180611570Y-91193600I218750J0D01*
G01*
X181049070Y-91193600D01*
G75*
G02*
X181267820Y-91412350I0J-218750D01*
G01*
X181267820Y-91924850D01*
G75*
G02*
X181049070Y-92143600I-218750J0D01*
G01*
X180611570Y-92143600D01*
G75*
G02*
X180392820Y-91924850I0J218750D01*
G01*
G37*
G36*
G01*
X178817820Y-91924850D02*
X178817820Y-91412350D01*
G75*
G02*
X179036570Y-91193600I218750J0D01*
G01*
X179474070Y-91193600D01*
G75*
G02*
X179692820Y-91412350I0J-218750D01*
G01*
X179692820Y-91924850D01*
G75*
G02*
X179474070Y-92143600I-218750J0D01*
G01*
X179036570Y-92143600D01*
G75*
G02*
X178817820Y-91924850I0J218750D01*
G01*
G37*
%TD*%
%TO.C,C5*%
G36*
G01*
X180420000Y-107606250D02*
X180420000Y-107093750D01*
G75*
G02*
X180638750Y-106875000I218750J0D01*
G01*
X181076250Y-106875000D01*
G75*
G02*
X181295000Y-107093750I0J-218750D01*
G01*
X181295000Y-107606250D01*
G75*
G02*
X181076250Y-107825000I-218750J0D01*
G01*
X180638750Y-107825000D01*
G75*
G02*
X180420000Y-107606250I0J218750D01*
G01*
G37*
G36*
G01*
X178845000Y-107606250D02*
X178845000Y-107093750D01*
G75*
G02*
X179063750Y-106875000I218750J0D01*
G01*
X179501250Y-106875000D01*
G75*
G02*
X179720000Y-107093750I0J-218750D01*
G01*
X179720000Y-107606250D01*
G75*
G02*
X179501250Y-107825000I-218750J0D01*
G01*
X179063750Y-107825000D01*
G75*
G02*
X178845000Y-107606250I0J218750D01*
G01*
G37*
%TD*%
%TO.C,C4*%
G36*
G01*
X127632750Y-90901000D02*
X128145250Y-90901000D01*
G75*
G02*
X128364000Y-91119750I0J-218750D01*
G01*
X128364000Y-91557250D01*
G75*
G02*
X128145250Y-91776000I-218750J0D01*
G01*
X127632750Y-91776000D01*
G75*
G02*
X127414000Y-91557250I0J218750D01*
G01*
X127414000Y-91119750D01*
G75*
G02*
X127632750Y-90901000I218750J0D01*
G01*
G37*
G36*
G01*
X127632750Y-89326000D02*
X128145250Y-89326000D01*
G75*
G02*
X128364000Y-89544750I0J-218750D01*
G01*
X128364000Y-89982250D01*
G75*
G02*
X128145250Y-90201000I-218750J0D01*
G01*
X127632750Y-90201000D01*
G75*
G02*
X127414000Y-89982250I0J218750D01*
G01*
X127414000Y-89544750D01*
G75*
G02*
X127632750Y-89326000I218750J0D01*
G01*
G37*
%TD*%
%TO.C,C1*%
G36*
G01*
X128116250Y-85400000D02*
X127603750Y-85400000D01*
G75*
G02*
X127385000Y-85181250I0J218750D01*
G01*
X127385000Y-84743750D01*
G75*
G02*
X127603750Y-84525000I218750J0D01*
G01*
X128116250Y-84525000D01*
G75*
G02*
X128335000Y-84743750I0J-218750D01*
G01*
X128335000Y-85181250D01*
G75*
G02*
X128116250Y-85400000I-218750J0D01*
G01*
G37*
G36*
G01*
X128116250Y-86975000D02*
X127603750Y-86975000D01*
G75*
G02*
X127385000Y-86756250I0J218750D01*
G01*
X127385000Y-86318750D01*
G75*
G02*
X127603750Y-86100000I218750J0D01*
G01*
X128116250Y-86100000D01*
G75*
G02*
X128335000Y-86318750I0J-218750D01*
G01*
X128335000Y-86756250D01*
G75*
G02*
X128116250Y-86975000I-218750J0D01*
G01*
G37*
%TD*%
M02*
