%TF.GenerationSoftware,KiCad,Pcbnew,(5.1.6)-1*%
%TF.CreationDate,2020-09-01T01:33:34+02:00*%
%TF.ProjectId,microFSETv3final,6d696372-6f46-4534-9554-763366696e61,rev?*%
%TF.SameCoordinates,Original*%
%TF.FileFunction,Legend,Top*%
%TF.FilePolarity,Positive*%
%FSLAX46Y46*%
G04 Gerber Fmt 4.6, Leading zero omitted, Abs format (unit mm)*
G04 Created by KiCad (PCBNEW (5.1.6)-1) date 2020-09-01 01:33:34*
%MOMM*%
%LPD*%
G01*
G04 APERTURE LIST*
%ADD10C,0.120000*%
%ADD11C,0.150000*%
G04 APERTURE END LIST*
D10*
%TO.C,SW9*%
X173635000Y-116650000D02*
X175605000Y-116650000D01*
X172275000Y-116660000D02*
X172415000Y-116660000D01*
X172275000Y-111940000D02*
X172275000Y-116660000D01*
X172435000Y-111940000D02*
X172275000Y-111940000D01*
X175625000Y-111940000D02*
X173615000Y-111940000D01*
X176985000Y-111940000D02*
X176835000Y-111940000D01*
X176985000Y-116660000D02*
X176985000Y-111940000D01*
X176825000Y-116660000D02*
X176985000Y-116660000D01*
%TO.C,SW8*%
X165380000Y-116650000D02*
X167350000Y-116650000D01*
X164020000Y-116660000D02*
X164160000Y-116660000D01*
X164020000Y-111940000D02*
X164020000Y-116660000D01*
X164180000Y-111940000D02*
X164020000Y-111940000D01*
X167370000Y-111940000D02*
X165360000Y-111940000D01*
X168730000Y-111940000D02*
X168580000Y-111940000D01*
X168730000Y-116660000D02*
X168730000Y-111940000D01*
X168570000Y-116660000D02*
X168730000Y-116660000D01*
%TO.C,SW7*%
X157125000Y-116650000D02*
X159095000Y-116650000D01*
X155765000Y-116660000D02*
X155905000Y-116660000D01*
X155765000Y-111940000D02*
X155765000Y-116660000D01*
X155925000Y-111940000D02*
X155765000Y-111940000D01*
X159115000Y-111940000D02*
X157105000Y-111940000D01*
X160475000Y-111940000D02*
X160325000Y-111940000D01*
X160475000Y-116660000D02*
X160475000Y-111940000D01*
X160315000Y-116660000D02*
X160475000Y-116660000D01*
%TO.C,SW6*%
X148870000Y-116650000D02*
X150840000Y-116650000D01*
X147510000Y-116660000D02*
X147650000Y-116660000D01*
X147510000Y-111940000D02*
X147510000Y-116660000D01*
X147670000Y-111940000D02*
X147510000Y-111940000D01*
X150860000Y-111940000D02*
X148850000Y-111940000D01*
X152220000Y-111940000D02*
X152070000Y-111940000D01*
X152220000Y-116660000D02*
X152220000Y-111940000D01*
X152060000Y-116660000D02*
X152220000Y-116660000D01*
%TO.C,SW5*%
X140615000Y-116650000D02*
X142585000Y-116650000D01*
X139255000Y-116660000D02*
X139395000Y-116660000D01*
X139255000Y-111940000D02*
X139255000Y-116660000D01*
X139415000Y-111940000D02*
X139255000Y-111940000D01*
X142605000Y-111940000D02*
X140595000Y-111940000D01*
X143965000Y-111940000D02*
X143815000Y-111940000D01*
X143965000Y-116660000D02*
X143965000Y-111940000D01*
X143805000Y-116660000D02*
X143965000Y-116660000D01*
%TO.C,SW4*%
X132360000Y-116650000D02*
X134330000Y-116650000D01*
X131000000Y-116660000D02*
X131140000Y-116660000D01*
X131000000Y-111940000D02*
X131000000Y-116660000D01*
X131160000Y-111940000D02*
X131000000Y-111940000D01*
X134350000Y-111940000D02*
X132340000Y-111940000D01*
X135710000Y-111940000D02*
X135560000Y-111940000D01*
X135710000Y-116660000D02*
X135710000Y-111940000D01*
X135550000Y-116660000D02*
X135710000Y-116660000D01*
%TO.C,SW3*%
X124105000Y-116650000D02*
X126075000Y-116650000D01*
X122745000Y-116660000D02*
X122885000Y-116660000D01*
X122745000Y-111940000D02*
X122745000Y-116660000D01*
X122905000Y-111940000D02*
X122745000Y-111940000D01*
X126095000Y-111940000D02*
X124085000Y-111940000D01*
X127455000Y-111940000D02*
X127305000Y-111940000D01*
X127455000Y-116660000D02*
X127455000Y-111940000D01*
X127295000Y-116660000D02*
X127455000Y-116660000D01*
%TO.C,SW2*%
X115850000Y-116650000D02*
X117820000Y-116650000D01*
X114490000Y-116660000D02*
X114630000Y-116660000D01*
X114490000Y-111940000D02*
X114490000Y-116660000D01*
X114650000Y-111940000D02*
X114490000Y-111940000D01*
X117840000Y-111940000D02*
X115830000Y-111940000D01*
X119200000Y-111940000D02*
X119050000Y-111940000D01*
X119200000Y-116660000D02*
X119200000Y-111940000D01*
X119040000Y-116660000D02*
X119200000Y-116660000D01*
%TO.C,SW1*%
X114760000Y-72500000D02*
X114760000Y-74470000D01*
X114750000Y-71140000D02*
X114750000Y-71280000D01*
X119470000Y-71140000D02*
X114750000Y-71140000D01*
X119470000Y-71300000D02*
X119470000Y-71140000D01*
X119470000Y-74490000D02*
X119470000Y-72480000D01*
X119470000Y-75850000D02*
X119470000Y-75700000D01*
X114750000Y-75850000D02*
X119470000Y-75850000D01*
X114750000Y-75690000D02*
X114750000Y-75850000D01*
%TO.C,J1*%
X109898240Y-89456140D02*
X109898240Y-90116140D01*
X108168240Y-89456140D02*
X109898240Y-89456140D01*
X105248240Y-97616140D02*
X105458240Y-97616140D01*
X105248240Y-89536140D02*
X105458240Y-89536140D01*
X108178240Y-97706140D02*
X109908240Y-97706140D01*
X109908240Y-97706140D02*
X109908240Y-97056140D01*
X110248240Y-91816140D02*
X110248240Y-92266140D01*
X110248240Y-91816140D02*
X109858240Y-91816140D01*
%TO.C,D1*%
X111414000Y-91251000D02*
X111414000Y-89401000D01*
X112614000Y-91251000D02*
X112614000Y-89401000D01*
X112614000Y-89401000D02*
X111414000Y-89401000D01*
%TO.C,BZ1*%
X177750000Y-81915000D02*
G75*
G03*
X177750000Y-81915000I-6300000J0D01*
G01*
%TO.C,Y1*%
X138271000Y-97929800D02*
X138271000Y-97529800D01*
X138071000Y-97929800D02*
X138071000Y-97529800D01*
X134471000Y-97929800D02*
X134471000Y-97529800D01*
X138271000Y-99929800D02*
X138271000Y-97929800D01*
X137071000Y-97529800D02*
X137071000Y-97129800D01*
X137071000Y-97529800D02*
X138071000Y-97529800D01*
X138071000Y-97929800D02*
X138071000Y-99929800D01*
X138071000Y-99929800D02*
X137071000Y-99929800D01*
X135271000Y-99929800D02*
X134471000Y-99929800D01*
X134471000Y-99929800D02*
X134471000Y-97929800D01*
X134471000Y-97529800D02*
X135271000Y-97529800D01*
%TO.C,RV2*%
X145786540Y-70533240D02*
X145981540Y-70533240D01*
X142741540Y-70533240D02*
X142936540Y-70533240D01*
X143287540Y-75574240D02*
X145436540Y-75574240D01*
X145981540Y-74216240D02*
X145981540Y-70533240D01*
X142741540Y-74216240D02*
X142741540Y-70533240D01*
X143287540Y-75574240D02*
X145436540Y-75574240D01*
X139340540Y-75574240D02*
X140435540Y-75574240D01*
X148286540Y-75574240D02*
X149381540Y-75574240D01*
X145786540Y-70533240D02*
X149381540Y-70533240D01*
X139340540Y-70533240D02*
X142936540Y-70533240D01*
X149381540Y-75574240D02*
X149381540Y-70533240D01*
X139340540Y-75574240D02*
X139340540Y-70533240D01*
%TO.C,RV1*%
X131816540Y-70533240D02*
X132011540Y-70533240D01*
X128771540Y-70533240D02*
X128966540Y-70533240D01*
X129317540Y-75574240D02*
X131466540Y-75574240D01*
X132011540Y-74216240D02*
X132011540Y-70533240D01*
X128771540Y-74216240D02*
X128771540Y-70533240D01*
X129317540Y-75574240D02*
X131466540Y-75574240D01*
X125370540Y-75574240D02*
X126465540Y-75574240D01*
X134316540Y-75574240D02*
X135411540Y-75574240D01*
X131816540Y-70533240D02*
X135411540Y-70533240D01*
X125370540Y-70533240D02*
X128966540Y-70533240D01*
X135411540Y-75574240D02*
X135411540Y-70533240D01*
X125370540Y-75574240D02*
X125370540Y-70533240D01*
%TO.C,R3*%
X115757741Y-85361240D02*
X116083299Y-85361240D01*
X115757741Y-84341240D02*
X116083299Y-84341240D01*
%TO.C,Q2*%
X114270520Y-83446240D02*
X118155520Y-83446240D01*
X114270520Y-81176240D02*
X114270520Y-83446240D01*
X118155520Y-81176240D02*
X114270520Y-81176240D01*
%TO.C,U2*%
X160741360Y-104830700D02*
X164601360Y-104830700D01*
X164601360Y-104830700D02*
X164601360Y-104585700D01*
X160741360Y-104830700D02*
X156881360Y-104830700D01*
X156881360Y-104830700D02*
X156881360Y-104585700D01*
X160741360Y-93060700D02*
X164601360Y-93060700D01*
X164601360Y-93060700D02*
X164601360Y-93305700D01*
X160741360Y-93060700D02*
X156881360Y-93060700D01*
X156881360Y-93060700D02*
X156881360Y-93305700D01*
X156881360Y-93305700D02*
X155066360Y-93305700D01*
D11*
%TO.C,U1*%
X131477000Y-84614000D02*
X131477000Y-85189000D01*
X141827000Y-84614000D02*
X141827000Y-85289000D01*
X141827000Y-94964000D02*
X141827000Y-94289000D01*
X131477000Y-94964000D02*
X131477000Y-94289000D01*
X131477000Y-84614000D02*
X132152000Y-84614000D01*
X131477000Y-94964000D02*
X132152000Y-94964000D01*
X141827000Y-94964000D02*
X141152000Y-94964000D01*
X141827000Y-84614000D02*
X141152000Y-84614000D01*
X131477000Y-85189000D02*
X130202000Y-85189000D01*
D10*
%TO.C,RN3*%
X157780000Y-88840000D02*
X156980000Y-88840000D01*
X157780000Y-85400000D02*
X156980000Y-85400000D01*
%TO.C,RN2*%
X174009000Y-103828000D02*
X173209000Y-103828000D01*
X174009000Y-100388000D02*
X173209000Y-100388000D01*
%TO.C,RN1*%
X174009000Y-96208000D02*
X173209000Y-96208000D01*
X174009000Y-92768000D02*
X173209000Y-92768000D01*
%TO.C,R2*%
X118535019Y-92686600D02*
X118209461Y-92686600D01*
X118535019Y-91666600D02*
X118209461Y-91666600D01*
%TO.C,R1*%
X118535019Y-94835440D02*
X118209461Y-94835440D01*
X118535019Y-93815440D02*
X118209461Y-93815440D01*
%TO.C,Q1*%
X151150000Y-90080000D02*
X152080000Y-90080000D01*
X154310000Y-90080000D02*
X153380000Y-90080000D01*
X154310000Y-90080000D02*
X154310000Y-87920000D01*
X151150000Y-90080000D02*
X151150000Y-88620000D01*
%TO.C,J3*%
X175250000Y-68520000D02*
X175250000Y-71180000D01*
X175250000Y-68520000D02*
X152330000Y-68520000D01*
X152330000Y-68520000D02*
X152330000Y-71180000D01*
X175250000Y-71180000D02*
X152330000Y-71180000D01*
X177850000Y-71180000D02*
X176520000Y-71180000D01*
X177850000Y-69850000D02*
X177850000Y-71180000D01*
%TO.C,J2*%
X109220000Y-127060000D02*
X109220000Y-124400000D01*
X109220000Y-127060000D02*
X182940000Y-127060000D01*
X182940000Y-127060000D02*
X182940000Y-124400000D01*
X109220000Y-124400000D02*
X182940000Y-124400000D01*
X106620000Y-124400000D02*
X107950000Y-124400000D01*
X106620000Y-125730000D02*
X106620000Y-124400000D01*
%TO.C,D11*%
X155825000Y-74850000D02*
X155825000Y-77135000D01*
X155825000Y-77135000D02*
X157295000Y-77135000D01*
X157295000Y-77135000D02*
X157295000Y-74850000D01*
%TO.C,D10*%
X158777000Y-74765000D02*
X158777000Y-77050000D01*
X158777000Y-77050000D02*
X160247000Y-77050000D01*
X160247000Y-77050000D02*
X160247000Y-74765000D01*
%TO.C,D9*%
X180842820Y-104268600D02*
X178557820Y-104268600D01*
X178557820Y-104268600D02*
X178557820Y-105738600D01*
X178557820Y-105738600D02*
X180842820Y-105738600D01*
%TO.C,D8*%
X180842820Y-102363600D02*
X178557820Y-102363600D01*
X178557820Y-102363600D02*
X178557820Y-103833600D01*
X178557820Y-103833600D02*
X180842820Y-103833600D01*
%TO.C,D7*%
X180842820Y-100458600D02*
X178557820Y-100458600D01*
X178557820Y-100458600D02*
X178557820Y-101928600D01*
X178557820Y-101928600D02*
X180842820Y-101928600D01*
%TO.C,D6*%
X180842820Y-98553600D02*
X178557820Y-98553600D01*
X178557820Y-98553600D02*
X178557820Y-100023600D01*
X178557820Y-100023600D02*
X180842820Y-100023600D01*
%TO.C,D5*%
X180842820Y-96648600D02*
X178557820Y-96648600D01*
X178557820Y-96648600D02*
X178557820Y-98118600D01*
X178557820Y-98118600D02*
X180842820Y-98118600D01*
%TO.C,D4*%
X180842820Y-94743600D02*
X178557820Y-94743600D01*
X178557820Y-94743600D02*
X178557820Y-96213600D01*
X178557820Y-96213600D02*
X180842820Y-96213600D01*
%TO.C,D3*%
X180842820Y-92838600D02*
X178557820Y-92838600D01*
X178557820Y-92838600D02*
X178557820Y-94308600D01*
X178557820Y-94308600D02*
X180842820Y-94308600D01*
%TO.C,D2*%
X180842820Y-90933600D02*
X178557820Y-90933600D01*
X178557820Y-90933600D02*
X178557820Y-92403600D01*
X178557820Y-92403600D02*
X180842820Y-92403600D01*
%TO.C,C5*%
X179907221Y-106840000D02*
X180232779Y-106840000D01*
X179907221Y-107860000D02*
X180232779Y-107860000D01*
%TO.C,C4*%
X128399000Y-90388221D02*
X128399000Y-90713779D01*
X127379000Y-90388221D02*
X127379000Y-90713779D01*
%TO.C,C1*%
X127350000Y-85912779D02*
X127350000Y-85587221D01*
X128370000Y-85912779D02*
X128370000Y-85587221D01*
%TO.C,SW9*%
D11*
X178449761Y-115643333D02*
X178497380Y-115500476D01*
X178497380Y-115262380D01*
X178449761Y-115167142D01*
X178402142Y-115119523D01*
X178306904Y-115071904D01*
X178211666Y-115071904D01*
X178116428Y-115119523D01*
X178068809Y-115167142D01*
X178021190Y-115262380D01*
X177973571Y-115452857D01*
X177925952Y-115548095D01*
X177878333Y-115595714D01*
X177783095Y-115643333D01*
X177687857Y-115643333D01*
X177592619Y-115595714D01*
X177545000Y-115548095D01*
X177497380Y-115452857D01*
X177497380Y-115214761D01*
X177545000Y-115071904D01*
X177497380Y-114738571D02*
X178497380Y-114500476D01*
X177783095Y-114310000D01*
X178497380Y-114119523D01*
X177497380Y-113881428D01*
X178497380Y-113452857D02*
X178497380Y-113262380D01*
X178449761Y-113167142D01*
X178402142Y-113119523D01*
X178259285Y-113024285D01*
X178068809Y-112976666D01*
X177687857Y-112976666D01*
X177592619Y-113024285D01*
X177545000Y-113071904D01*
X177497380Y-113167142D01*
X177497380Y-113357619D01*
X177545000Y-113452857D01*
X177592619Y-113500476D01*
X177687857Y-113548095D01*
X177925952Y-113548095D01*
X178021190Y-113500476D01*
X178068809Y-113452857D01*
X178116428Y-113357619D01*
X178116428Y-113167142D01*
X178068809Y-113071904D01*
X178021190Y-113024285D01*
X177925952Y-112976666D01*
%TO.C,SW8*%
X170194761Y-115643333D02*
X170242380Y-115500476D01*
X170242380Y-115262380D01*
X170194761Y-115167142D01*
X170147142Y-115119523D01*
X170051904Y-115071904D01*
X169956666Y-115071904D01*
X169861428Y-115119523D01*
X169813809Y-115167142D01*
X169766190Y-115262380D01*
X169718571Y-115452857D01*
X169670952Y-115548095D01*
X169623333Y-115595714D01*
X169528095Y-115643333D01*
X169432857Y-115643333D01*
X169337619Y-115595714D01*
X169290000Y-115548095D01*
X169242380Y-115452857D01*
X169242380Y-115214761D01*
X169290000Y-115071904D01*
X169242380Y-114738571D02*
X170242380Y-114500476D01*
X169528095Y-114310000D01*
X170242380Y-114119523D01*
X169242380Y-113881428D01*
X169670952Y-113357619D02*
X169623333Y-113452857D01*
X169575714Y-113500476D01*
X169480476Y-113548095D01*
X169432857Y-113548095D01*
X169337619Y-113500476D01*
X169290000Y-113452857D01*
X169242380Y-113357619D01*
X169242380Y-113167142D01*
X169290000Y-113071904D01*
X169337619Y-113024285D01*
X169432857Y-112976666D01*
X169480476Y-112976666D01*
X169575714Y-113024285D01*
X169623333Y-113071904D01*
X169670952Y-113167142D01*
X169670952Y-113357619D01*
X169718571Y-113452857D01*
X169766190Y-113500476D01*
X169861428Y-113548095D01*
X170051904Y-113548095D01*
X170147142Y-113500476D01*
X170194761Y-113452857D01*
X170242380Y-113357619D01*
X170242380Y-113167142D01*
X170194761Y-113071904D01*
X170147142Y-113024285D01*
X170051904Y-112976666D01*
X169861428Y-112976666D01*
X169766190Y-113024285D01*
X169718571Y-113071904D01*
X169670952Y-113167142D01*
%TO.C,SW7*%
X161939761Y-115643333D02*
X161987380Y-115500476D01*
X161987380Y-115262380D01*
X161939761Y-115167142D01*
X161892142Y-115119523D01*
X161796904Y-115071904D01*
X161701666Y-115071904D01*
X161606428Y-115119523D01*
X161558809Y-115167142D01*
X161511190Y-115262380D01*
X161463571Y-115452857D01*
X161415952Y-115548095D01*
X161368333Y-115595714D01*
X161273095Y-115643333D01*
X161177857Y-115643333D01*
X161082619Y-115595714D01*
X161035000Y-115548095D01*
X160987380Y-115452857D01*
X160987380Y-115214761D01*
X161035000Y-115071904D01*
X160987380Y-114738571D02*
X161987380Y-114500476D01*
X161273095Y-114310000D01*
X161987380Y-114119523D01*
X160987380Y-113881428D01*
X160987380Y-113595714D02*
X160987380Y-112929047D01*
X161987380Y-113357619D01*
%TO.C,SW6*%
X153684761Y-115643333D02*
X153732380Y-115500476D01*
X153732380Y-115262380D01*
X153684761Y-115167142D01*
X153637142Y-115119523D01*
X153541904Y-115071904D01*
X153446666Y-115071904D01*
X153351428Y-115119523D01*
X153303809Y-115167142D01*
X153256190Y-115262380D01*
X153208571Y-115452857D01*
X153160952Y-115548095D01*
X153113333Y-115595714D01*
X153018095Y-115643333D01*
X152922857Y-115643333D01*
X152827619Y-115595714D01*
X152780000Y-115548095D01*
X152732380Y-115452857D01*
X152732380Y-115214761D01*
X152780000Y-115071904D01*
X152732380Y-114738571D02*
X153732380Y-114500476D01*
X153018095Y-114310000D01*
X153732380Y-114119523D01*
X152732380Y-113881428D01*
X152732380Y-113071904D02*
X152732380Y-113262380D01*
X152780000Y-113357619D01*
X152827619Y-113405238D01*
X152970476Y-113500476D01*
X153160952Y-113548095D01*
X153541904Y-113548095D01*
X153637142Y-113500476D01*
X153684761Y-113452857D01*
X153732380Y-113357619D01*
X153732380Y-113167142D01*
X153684761Y-113071904D01*
X153637142Y-113024285D01*
X153541904Y-112976666D01*
X153303809Y-112976666D01*
X153208571Y-113024285D01*
X153160952Y-113071904D01*
X153113333Y-113167142D01*
X153113333Y-113357619D01*
X153160952Y-113452857D01*
X153208571Y-113500476D01*
X153303809Y-113548095D01*
%TO.C,SW5*%
X145429761Y-115643333D02*
X145477380Y-115500476D01*
X145477380Y-115262380D01*
X145429761Y-115167142D01*
X145382142Y-115119523D01*
X145286904Y-115071904D01*
X145191666Y-115071904D01*
X145096428Y-115119523D01*
X145048809Y-115167142D01*
X145001190Y-115262380D01*
X144953571Y-115452857D01*
X144905952Y-115548095D01*
X144858333Y-115595714D01*
X144763095Y-115643333D01*
X144667857Y-115643333D01*
X144572619Y-115595714D01*
X144525000Y-115548095D01*
X144477380Y-115452857D01*
X144477380Y-115214761D01*
X144525000Y-115071904D01*
X144477380Y-114738571D02*
X145477380Y-114500476D01*
X144763095Y-114310000D01*
X145477380Y-114119523D01*
X144477380Y-113881428D01*
X144477380Y-113024285D02*
X144477380Y-113500476D01*
X144953571Y-113548095D01*
X144905952Y-113500476D01*
X144858333Y-113405238D01*
X144858333Y-113167142D01*
X144905952Y-113071904D01*
X144953571Y-113024285D01*
X145048809Y-112976666D01*
X145286904Y-112976666D01*
X145382142Y-113024285D01*
X145429761Y-113071904D01*
X145477380Y-113167142D01*
X145477380Y-113405238D01*
X145429761Y-113500476D01*
X145382142Y-113548095D01*
%TO.C,SW4*%
X137174761Y-115643333D02*
X137222380Y-115500476D01*
X137222380Y-115262380D01*
X137174761Y-115167142D01*
X137127142Y-115119523D01*
X137031904Y-115071904D01*
X136936666Y-115071904D01*
X136841428Y-115119523D01*
X136793809Y-115167142D01*
X136746190Y-115262380D01*
X136698571Y-115452857D01*
X136650952Y-115548095D01*
X136603333Y-115595714D01*
X136508095Y-115643333D01*
X136412857Y-115643333D01*
X136317619Y-115595714D01*
X136270000Y-115548095D01*
X136222380Y-115452857D01*
X136222380Y-115214761D01*
X136270000Y-115071904D01*
X136222380Y-114738571D02*
X137222380Y-114500476D01*
X136508095Y-114310000D01*
X137222380Y-114119523D01*
X136222380Y-113881428D01*
X136555714Y-113071904D02*
X137222380Y-113071904D01*
X136174761Y-113310000D02*
X136889047Y-113548095D01*
X136889047Y-112929047D01*
%TO.C,SW3*%
X128919761Y-115643333D02*
X128967380Y-115500476D01*
X128967380Y-115262380D01*
X128919761Y-115167142D01*
X128872142Y-115119523D01*
X128776904Y-115071904D01*
X128681666Y-115071904D01*
X128586428Y-115119523D01*
X128538809Y-115167142D01*
X128491190Y-115262380D01*
X128443571Y-115452857D01*
X128395952Y-115548095D01*
X128348333Y-115595714D01*
X128253095Y-115643333D01*
X128157857Y-115643333D01*
X128062619Y-115595714D01*
X128015000Y-115548095D01*
X127967380Y-115452857D01*
X127967380Y-115214761D01*
X128015000Y-115071904D01*
X127967380Y-114738571D02*
X128967380Y-114500476D01*
X128253095Y-114310000D01*
X128967380Y-114119523D01*
X127967380Y-113881428D01*
X127967380Y-113595714D02*
X127967380Y-112976666D01*
X128348333Y-113310000D01*
X128348333Y-113167142D01*
X128395952Y-113071904D01*
X128443571Y-113024285D01*
X128538809Y-112976666D01*
X128776904Y-112976666D01*
X128872142Y-113024285D01*
X128919761Y-113071904D01*
X128967380Y-113167142D01*
X128967380Y-113452857D01*
X128919761Y-113548095D01*
X128872142Y-113595714D01*
%TO.C,SW2*%
X120664761Y-115643333D02*
X120712380Y-115500476D01*
X120712380Y-115262380D01*
X120664761Y-115167142D01*
X120617142Y-115119523D01*
X120521904Y-115071904D01*
X120426666Y-115071904D01*
X120331428Y-115119523D01*
X120283809Y-115167142D01*
X120236190Y-115262380D01*
X120188571Y-115452857D01*
X120140952Y-115548095D01*
X120093333Y-115595714D01*
X119998095Y-115643333D01*
X119902857Y-115643333D01*
X119807619Y-115595714D01*
X119760000Y-115548095D01*
X119712380Y-115452857D01*
X119712380Y-115214761D01*
X119760000Y-115071904D01*
X119712380Y-114738571D02*
X120712380Y-114500476D01*
X119998095Y-114310000D01*
X120712380Y-114119523D01*
X119712380Y-113881428D01*
X119807619Y-113548095D02*
X119760000Y-113500476D01*
X119712380Y-113405238D01*
X119712380Y-113167142D01*
X119760000Y-113071904D01*
X119807619Y-113024285D01*
X119902857Y-112976666D01*
X119998095Y-112976666D01*
X120140952Y-113024285D01*
X120712380Y-113595714D01*
X120712380Y-112976666D01*
%TO.C,SW1*%
X115766666Y-77314761D02*
X115909523Y-77362380D01*
X116147619Y-77362380D01*
X116242857Y-77314761D01*
X116290476Y-77267142D01*
X116338095Y-77171904D01*
X116338095Y-77076666D01*
X116290476Y-76981428D01*
X116242857Y-76933809D01*
X116147619Y-76886190D01*
X115957142Y-76838571D01*
X115861904Y-76790952D01*
X115814285Y-76743333D01*
X115766666Y-76648095D01*
X115766666Y-76552857D01*
X115814285Y-76457619D01*
X115861904Y-76410000D01*
X115957142Y-76362380D01*
X116195238Y-76362380D01*
X116338095Y-76410000D01*
X116671428Y-76362380D02*
X116909523Y-77362380D01*
X117100000Y-76648095D01*
X117290476Y-77362380D01*
X117528571Y-76362380D01*
X118433333Y-77362380D02*
X117861904Y-77362380D01*
X118147619Y-77362380D02*
X118147619Y-76362380D01*
X118052380Y-76505238D01*
X117957142Y-76600476D01*
X117861904Y-76648095D01*
%TO.C,J1*%
X110590620Y-93909473D02*
X111304906Y-93909473D01*
X111447763Y-93957092D01*
X111543001Y-94052330D01*
X111590620Y-94195187D01*
X111590620Y-94290425D01*
X111590620Y-92909473D02*
X111590620Y-93480901D01*
X111590620Y-93195187D02*
X110590620Y-93195187D01*
X110733478Y-93290425D01*
X110828716Y-93385663D01*
X110876335Y-93480901D01*
%TO.C,D1*%
X113766380Y-91289095D02*
X112766380Y-91289095D01*
X112766380Y-91051000D01*
X112814000Y-90908142D01*
X112909238Y-90812904D01*
X113004476Y-90765285D01*
X113194952Y-90717666D01*
X113337809Y-90717666D01*
X113528285Y-90765285D01*
X113623523Y-90812904D01*
X113718761Y-90908142D01*
X113766380Y-91051000D01*
X113766380Y-91289095D01*
X113766380Y-89765285D02*
X113766380Y-90336714D01*
X113766380Y-90051000D02*
X112766380Y-90051000D01*
X112909238Y-90146238D01*
X113004476Y-90241476D01*
X113052095Y-90336714D01*
%TO.C,BZ1*%
X165409047Y-90073571D02*
X165551904Y-90121190D01*
X165599523Y-90168809D01*
X165647142Y-90264047D01*
X165647142Y-90406904D01*
X165599523Y-90502142D01*
X165551904Y-90549761D01*
X165456666Y-90597380D01*
X165075714Y-90597380D01*
X165075714Y-89597380D01*
X165409047Y-89597380D01*
X165504285Y-89645000D01*
X165551904Y-89692619D01*
X165599523Y-89787857D01*
X165599523Y-89883095D01*
X165551904Y-89978333D01*
X165504285Y-90025952D01*
X165409047Y-90073571D01*
X165075714Y-90073571D01*
X165980476Y-89597380D02*
X166647142Y-89597380D01*
X165980476Y-90597380D01*
X166647142Y-90597380D01*
X167551904Y-90597380D02*
X166980476Y-90597380D01*
X167266190Y-90597380D02*
X167266190Y-89597380D01*
X167170952Y-89740238D01*
X167075714Y-89835476D01*
X166980476Y-89883095D01*
X171079047Y-84526428D02*
X171840952Y-84526428D01*
X171460000Y-84907380D02*
X171460000Y-84145476D01*
%TO.C,Y1*%
X135794809Y-100705990D02*
X135794809Y-101182180D01*
X135461476Y-100182180D02*
X135794809Y-100705990D01*
X136128142Y-100182180D01*
X136985285Y-101182180D02*
X136413857Y-101182180D01*
X136699571Y-101182180D02*
X136699571Y-100182180D01*
X136604333Y-100325038D01*
X136509095Y-100420276D01*
X136413857Y-100467895D01*
%TO.C,RV2*%
X138663920Y-76048478D02*
X138187730Y-76381811D01*
X138663920Y-76619906D02*
X137663920Y-76619906D01*
X137663920Y-76238954D01*
X137711540Y-76143716D01*
X137759159Y-76096097D01*
X137854397Y-76048478D01*
X137997254Y-76048478D01*
X138092492Y-76096097D01*
X138140111Y-76143716D01*
X138187730Y-76238954D01*
X138187730Y-76619906D01*
X137663920Y-75762763D02*
X138663920Y-75429430D01*
X137663920Y-75096097D01*
X137759159Y-74810382D02*
X137711540Y-74762763D01*
X137663920Y-74667525D01*
X137663920Y-74429430D01*
X137711540Y-74334192D01*
X137759159Y-74286573D01*
X137854397Y-74238954D01*
X137949635Y-74238954D01*
X138092492Y-74286573D01*
X138663920Y-74858001D01*
X138663920Y-74238954D01*
%TO.C,RV1*%
X124693920Y-76048478D02*
X124217730Y-76381811D01*
X124693920Y-76619906D02*
X123693920Y-76619906D01*
X123693920Y-76238954D01*
X123741540Y-76143716D01*
X123789159Y-76096097D01*
X123884397Y-76048478D01*
X124027254Y-76048478D01*
X124122492Y-76096097D01*
X124170111Y-76143716D01*
X124217730Y-76238954D01*
X124217730Y-76619906D01*
X123693920Y-75762763D02*
X124693920Y-75429430D01*
X123693920Y-75096097D01*
X124693920Y-74238954D02*
X124693920Y-74810382D01*
X124693920Y-74524668D02*
X123693920Y-74524668D01*
X123836778Y-74619906D01*
X123932016Y-74715144D01*
X123979635Y-74810382D01*
%TO.C,R3*%
X115753853Y-83873620D02*
X115420520Y-83397430D01*
X115182424Y-83873620D02*
X115182424Y-82873620D01*
X115563377Y-82873620D01*
X115658615Y-82921240D01*
X115706234Y-82968859D01*
X115753853Y-83064097D01*
X115753853Y-83206954D01*
X115706234Y-83302192D01*
X115658615Y-83349811D01*
X115563377Y-83397430D01*
X115182424Y-83397430D01*
X116087186Y-82873620D02*
X116706234Y-82873620D01*
X116372900Y-83254573D01*
X116515758Y-83254573D01*
X116610996Y-83302192D01*
X116658615Y-83349811D01*
X116706234Y-83445049D01*
X116706234Y-83683144D01*
X116658615Y-83778382D01*
X116610996Y-83826001D01*
X116515758Y-83873620D01*
X116230043Y-83873620D01*
X116134805Y-83826001D01*
X116087186Y-83778382D01*
%TO.C,Q2*%
X116460281Y-81038859D02*
X116365043Y-80991240D01*
X116269805Y-80896001D01*
X116126948Y-80753144D01*
X116031710Y-80705525D01*
X115936472Y-80705525D01*
X115984091Y-80943620D02*
X115888853Y-80896001D01*
X115793615Y-80800763D01*
X115745996Y-80610287D01*
X115745996Y-80276954D01*
X115793615Y-80086478D01*
X115888853Y-79991240D01*
X115984091Y-79943620D01*
X116174567Y-79943620D01*
X116269805Y-79991240D01*
X116365043Y-80086478D01*
X116412662Y-80276954D01*
X116412662Y-80610287D01*
X116365043Y-80800763D01*
X116269805Y-80896001D01*
X116174567Y-80943620D01*
X115984091Y-80943620D01*
X116793615Y-80038859D02*
X116841234Y-79991240D01*
X116936472Y-79943620D01*
X117174567Y-79943620D01*
X117269805Y-79991240D01*
X117317424Y-80038859D01*
X117365043Y-80134097D01*
X117365043Y-80229335D01*
X117317424Y-80372192D01*
X116745996Y-80943620D01*
X117365043Y-80943620D01*
%TO.C,U2*%
X159979455Y-91678080D02*
X159979455Y-92487604D01*
X160027074Y-92582842D01*
X160074693Y-92630461D01*
X160169931Y-92678080D01*
X160360407Y-92678080D01*
X160455645Y-92630461D01*
X160503264Y-92582842D01*
X160550883Y-92487604D01*
X160550883Y-91678080D01*
X160979455Y-91773319D02*
X161027074Y-91725700D01*
X161122312Y-91678080D01*
X161360407Y-91678080D01*
X161455645Y-91725700D01*
X161503264Y-91773319D01*
X161550883Y-91868557D01*
X161550883Y-91963795D01*
X161503264Y-92106652D01*
X160931836Y-92678080D01*
X161550883Y-92678080D01*
%TO.C,U1*%
X135890095Y-81791380D02*
X135890095Y-82600904D01*
X135937714Y-82696142D01*
X135985333Y-82743761D01*
X136080571Y-82791380D01*
X136271047Y-82791380D01*
X136366285Y-82743761D01*
X136413904Y-82696142D01*
X136461523Y-82600904D01*
X136461523Y-81791380D01*
X137461523Y-82791380D02*
X136890095Y-82791380D01*
X137175809Y-82791380D02*
X137175809Y-81791380D01*
X137080571Y-81934238D01*
X136985333Y-82029476D01*
X136890095Y-82077095D01*
%TO.C,RN3*%
X156689523Y-84972380D02*
X156356190Y-84496190D01*
X156118095Y-84972380D02*
X156118095Y-83972380D01*
X156499047Y-83972380D01*
X156594285Y-84020000D01*
X156641904Y-84067619D01*
X156689523Y-84162857D01*
X156689523Y-84305714D01*
X156641904Y-84400952D01*
X156594285Y-84448571D01*
X156499047Y-84496190D01*
X156118095Y-84496190D01*
X157118095Y-84972380D02*
X157118095Y-83972380D01*
X157689523Y-84972380D01*
X157689523Y-83972380D01*
X158070476Y-83972380D02*
X158689523Y-83972380D01*
X158356190Y-84353333D01*
X158499047Y-84353333D01*
X158594285Y-84400952D01*
X158641904Y-84448571D01*
X158689523Y-84543809D01*
X158689523Y-84781904D01*
X158641904Y-84877142D01*
X158594285Y-84924761D01*
X158499047Y-84972380D01*
X158213333Y-84972380D01*
X158118095Y-84924761D01*
X158070476Y-84877142D01*
%TO.C,RN2*%
X172918523Y-99960380D02*
X172585190Y-99484190D01*
X172347095Y-99960380D02*
X172347095Y-98960380D01*
X172728047Y-98960380D01*
X172823285Y-99008000D01*
X172870904Y-99055619D01*
X172918523Y-99150857D01*
X172918523Y-99293714D01*
X172870904Y-99388952D01*
X172823285Y-99436571D01*
X172728047Y-99484190D01*
X172347095Y-99484190D01*
X173347095Y-99960380D02*
X173347095Y-98960380D01*
X173918523Y-99960380D01*
X173918523Y-98960380D01*
X174347095Y-99055619D02*
X174394714Y-99008000D01*
X174489952Y-98960380D01*
X174728047Y-98960380D01*
X174823285Y-99008000D01*
X174870904Y-99055619D01*
X174918523Y-99150857D01*
X174918523Y-99246095D01*
X174870904Y-99388952D01*
X174299476Y-99960380D01*
X174918523Y-99960380D01*
%TO.C,RN1*%
X172918523Y-92340380D02*
X172585190Y-91864190D01*
X172347095Y-92340380D02*
X172347095Y-91340380D01*
X172728047Y-91340380D01*
X172823285Y-91388000D01*
X172870904Y-91435619D01*
X172918523Y-91530857D01*
X172918523Y-91673714D01*
X172870904Y-91768952D01*
X172823285Y-91816571D01*
X172728047Y-91864190D01*
X172347095Y-91864190D01*
X173347095Y-92340380D02*
X173347095Y-91340380D01*
X173918523Y-92340380D01*
X173918523Y-91340380D01*
X174918523Y-92340380D02*
X174347095Y-92340380D01*
X174632809Y-92340380D02*
X174632809Y-91340380D01*
X174537571Y-91483238D01*
X174442333Y-91578476D01*
X174347095Y-91626095D01*
%TO.C,R2*%
X118205573Y-91219280D02*
X117872240Y-90743090D01*
X117634144Y-91219280D02*
X117634144Y-90219280D01*
X118015097Y-90219280D01*
X118110335Y-90266900D01*
X118157954Y-90314519D01*
X118205573Y-90409757D01*
X118205573Y-90552614D01*
X118157954Y-90647852D01*
X118110335Y-90695471D01*
X118015097Y-90743090D01*
X117634144Y-90743090D01*
X118586525Y-90314519D02*
X118634144Y-90266900D01*
X118729382Y-90219280D01*
X118967478Y-90219280D01*
X119062716Y-90266900D01*
X119110335Y-90314519D01*
X119157954Y-90409757D01*
X119157954Y-90504995D01*
X119110335Y-90647852D01*
X118538906Y-91219280D01*
X119157954Y-91219280D01*
%TO.C,R1*%
X118205573Y-96289120D02*
X117872240Y-95812930D01*
X117634144Y-96289120D02*
X117634144Y-95289120D01*
X118015097Y-95289120D01*
X118110335Y-95336740D01*
X118157954Y-95384359D01*
X118205573Y-95479597D01*
X118205573Y-95622454D01*
X118157954Y-95717692D01*
X118110335Y-95765311D01*
X118015097Y-95812930D01*
X117634144Y-95812930D01*
X119157954Y-96289120D02*
X118586525Y-96289120D01*
X118872240Y-96289120D02*
X118872240Y-95289120D01*
X118777001Y-95431978D01*
X118681763Y-95527216D01*
X118586525Y-95574835D01*
%TO.C,Q1*%
X155777619Y-89415238D02*
X155730000Y-89510476D01*
X155634761Y-89605714D01*
X155491904Y-89748571D01*
X155444285Y-89843809D01*
X155444285Y-89939047D01*
X155682380Y-89891428D02*
X155634761Y-89986666D01*
X155539523Y-90081904D01*
X155349047Y-90129523D01*
X155015714Y-90129523D01*
X154825238Y-90081904D01*
X154730000Y-89986666D01*
X154682380Y-89891428D01*
X154682380Y-89700952D01*
X154730000Y-89605714D01*
X154825238Y-89510476D01*
X155015714Y-89462857D01*
X155349047Y-89462857D01*
X155539523Y-89510476D01*
X155634761Y-89605714D01*
X155682380Y-89700952D01*
X155682380Y-89891428D01*
X155682380Y-88510476D02*
X155682380Y-89081904D01*
X155682380Y-88796190D02*
X154682380Y-88796190D01*
X154825238Y-88891428D01*
X154920476Y-88986666D01*
X154968095Y-89081904D01*
%TO.C,J3*%
X178742380Y-70183333D02*
X179456666Y-70183333D01*
X179599523Y-70230952D01*
X179694761Y-70326190D01*
X179742380Y-70469047D01*
X179742380Y-70564285D01*
X178742380Y-69802380D02*
X178742380Y-69183333D01*
X179123333Y-69516666D01*
X179123333Y-69373809D01*
X179170952Y-69278571D01*
X179218571Y-69230952D01*
X179313809Y-69183333D01*
X179551904Y-69183333D01*
X179647142Y-69230952D01*
X179694761Y-69278571D01*
X179742380Y-69373809D01*
X179742380Y-69659523D01*
X179694761Y-69754761D01*
X179647142Y-69802380D01*
%TO.C,J2*%
X104632380Y-126063333D02*
X105346666Y-126063333D01*
X105489523Y-126110952D01*
X105584761Y-126206190D01*
X105632380Y-126349047D01*
X105632380Y-126444285D01*
X104727619Y-125634761D02*
X104680000Y-125587142D01*
X104632380Y-125491904D01*
X104632380Y-125253809D01*
X104680000Y-125158571D01*
X104727619Y-125110952D01*
X104822857Y-125063333D01*
X104918095Y-125063333D01*
X105060952Y-125110952D01*
X105632380Y-125682380D01*
X105632380Y-125063333D01*
%TO.C,D11*%
X155582380Y-76864285D02*
X154582380Y-76864285D01*
X154582380Y-76626190D01*
X154630000Y-76483333D01*
X154725238Y-76388095D01*
X154820476Y-76340476D01*
X155010952Y-76292857D01*
X155153809Y-76292857D01*
X155344285Y-76340476D01*
X155439523Y-76388095D01*
X155534761Y-76483333D01*
X155582380Y-76626190D01*
X155582380Y-76864285D01*
X155582380Y-75340476D02*
X155582380Y-75911904D01*
X155582380Y-75626190D02*
X154582380Y-75626190D01*
X154725238Y-75721428D01*
X154820476Y-75816666D01*
X154868095Y-75911904D01*
X155582380Y-74388095D02*
X155582380Y-74959523D01*
X155582380Y-74673809D02*
X154582380Y-74673809D01*
X154725238Y-74769047D01*
X154820476Y-74864285D01*
X154868095Y-74959523D01*
%TO.C,D10*%
X158534380Y-76779285D02*
X157534380Y-76779285D01*
X157534380Y-76541190D01*
X157582000Y-76398333D01*
X157677238Y-76303095D01*
X157772476Y-76255476D01*
X157962952Y-76207857D01*
X158105809Y-76207857D01*
X158296285Y-76255476D01*
X158391523Y-76303095D01*
X158486761Y-76398333D01*
X158534380Y-76541190D01*
X158534380Y-76779285D01*
X158534380Y-75255476D02*
X158534380Y-75826904D01*
X158534380Y-75541190D02*
X157534380Y-75541190D01*
X157677238Y-75636428D01*
X157772476Y-75731666D01*
X157820095Y-75826904D01*
X157534380Y-74636428D02*
X157534380Y-74541190D01*
X157582000Y-74445952D01*
X157629619Y-74398333D01*
X157724857Y-74350714D01*
X157915333Y-74303095D01*
X158153428Y-74303095D01*
X158343904Y-74350714D01*
X158439142Y-74398333D01*
X158486761Y-74445952D01*
X158534380Y-74541190D01*
X158534380Y-74636428D01*
X158486761Y-74731666D01*
X158439142Y-74779285D01*
X158343904Y-74826904D01*
X158153428Y-74874523D01*
X157915333Y-74874523D01*
X157724857Y-74826904D01*
X157629619Y-74779285D01*
X157582000Y-74731666D01*
X157534380Y-74636428D01*
%TO.C,D9*%
X176764724Y-105455980D02*
X176764724Y-104455980D01*
X177002820Y-104455980D01*
X177145677Y-104503600D01*
X177240915Y-104598838D01*
X177288534Y-104694076D01*
X177336153Y-104884552D01*
X177336153Y-105027409D01*
X177288534Y-105217885D01*
X177240915Y-105313123D01*
X177145677Y-105408361D01*
X177002820Y-105455980D01*
X176764724Y-105455980D01*
X177812343Y-105455980D02*
X178002820Y-105455980D01*
X178098058Y-105408361D01*
X178145677Y-105360742D01*
X178240915Y-105217885D01*
X178288534Y-105027409D01*
X178288534Y-104646457D01*
X178240915Y-104551219D01*
X178193296Y-104503600D01*
X178098058Y-104455980D01*
X177907581Y-104455980D01*
X177812343Y-104503600D01*
X177764724Y-104551219D01*
X177717105Y-104646457D01*
X177717105Y-104884552D01*
X177764724Y-104979790D01*
X177812343Y-105027409D01*
X177907581Y-105075028D01*
X178098058Y-105075028D01*
X178193296Y-105027409D01*
X178240915Y-104979790D01*
X178288534Y-104884552D01*
%TO.C,D8*%
X176764724Y-103550980D02*
X176764724Y-102550980D01*
X177002820Y-102550980D01*
X177145677Y-102598600D01*
X177240915Y-102693838D01*
X177288534Y-102789076D01*
X177336153Y-102979552D01*
X177336153Y-103122409D01*
X177288534Y-103312885D01*
X177240915Y-103408123D01*
X177145677Y-103503361D01*
X177002820Y-103550980D01*
X176764724Y-103550980D01*
X177907581Y-102979552D02*
X177812343Y-102931933D01*
X177764724Y-102884314D01*
X177717105Y-102789076D01*
X177717105Y-102741457D01*
X177764724Y-102646219D01*
X177812343Y-102598600D01*
X177907581Y-102550980D01*
X178098058Y-102550980D01*
X178193296Y-102598600D01*
X178240915Y-102646219D01*
X178288534Y-102741457D01*
X178288534Y-102789076D01*
X178240915Y-102884314D01*
X178193296Y-102931933D01*
X178098058Y-102979552D01*
X177907581Y-102979552D01*
X177812343Y-103027171D01*
X177764724Y-103074790D01*
X177717105Y-103170028D01*
X177717105Y-103360504D01*
X177764724Y-103455742D01*
X177812343Y-103503361D01*
X177907581Y-103550980D01*
X178098058Y-103550980D01*
X178193296Y-103503361D01*
X178240915Y-103455742D01*
X178288534Y-103360504D01*
X178288534Y-103170028D01*
X178240915Y-103074790D01*
X178193296Y-103027171D01*
X178098058Y-102979552D01*
%TO.C,D7*%
X176764724Y-101645980D02*
X176764724Y-100645980D01*
X177002820Y-100645980D01*
X177145677Y-100693600D01*
X177240915Y-100788838D01*
X177288534Y-100884076D01*
X177336153Y-101074552D01*
X177336153Y-101217409D01*
X177288534Y-101407885D01*
X177240915Y-101503123D01*
X177145677Y-101598361D01*
X177002820Y-101645980D01*
X176764724Y-101645980D01*
X177669486Y-100645980D02*
X178336153Y-100645980D01*
X177907581Y-101645980D01*
%TO.C,D6*%
X176764724Y-99740980D02*
X176764724Y-98740980D01*
X177002820Y-98740980D01*
X177145677Y-98788600D01*
X177240915Y-98883838D01*
X177288534Y-98979076D01*
X177336153Y-99169552D01*
X177336153Y-99312409D01*
X177288534Y-99502885D01*
X177240915Y-99598123D01*
X177145677Y-99693361D01*
X177002820Y-99740980D01*
X176764724Y-99740980D01*
X178193296Y-98740980D02*
X178002820Y-98740980D01*
X177907581Y-98788600D01*
X177859962Y-98836219D01*
X177764724Y-98979076D01*
X177717105Y-99169552D01*
X177717105Y-99550504D01*
X177764724Y-99645742D01*
X177812343Y-99693361D01*
X177907581Y-99740980D01*
X178098058Y-99740980D01*
X178193296Y-99693361D01*
X178240915Y-99645742D01*
X178288534Y-99550504D01*
X178288534Y-99312409D01*
X178240915Y-99217171D01*
X178193296Y-99169552D01*
X178098058Y-99121933D01*
X177907581Y-99121933D01*
X177812343Y-99169552D01*
X177764724Y-99217171D01*
X177717105Y-99312409D01*
%TO.C,D5*%
X176764724Y-97835980D02*
X176764724Y-96835980D01*
X177002820Y-96835980D01*
X177145677Y-96883600D01*
X177240915Y-96978838D01*
X177288534Y-97074076D01*
X177336153Y-97264552D01*
X177336153Y-97407409D01*
X177288534Y-97597885D01*
X177240915Y-97693123D01*
X177145677Y-97788361D01*
X177002820Y-97835980D01*
X176764724Y-97835980D01*
X178240915Y-96835980D02*
X177764724Y-96835980D01*
X177717105Y-97312171D01*
X177764724Y-97264552D01*
X177859962Y-97216933D01*
X178098058Y-97216933D01*
X178193296Y-97264552D01*
X178240915Y-97312171D01*
X178288534Y-97407409D01*
X178288534Y-97645504D01*
X178240915Y-97740742D01*
X178193296Y-97788361D01*
X178098058Y-97835980D01*
X177859962Y-97835980D01*
X177764724Y-97788361D01*
X177717105Y-97740742D01*
%TO.C,D4*%
X176764724Y-95930980D02*
X176764724Y-94930980D01*
X177002820Y-94930980D01*
X177145677Y-94978600D01*
X177240915Y-95073838D01*
X177288534Y-95169076D01*
X177336153Y-95359552D01*
X177336153Y-95502409D01*
X177288534Y-95692885D01*
X177240915Y-95788123D01*
X177145677Y-95883361D01*
X177002820Y-95930980D01*
X176764724Y-95930980D01*
X178193296Y-95264314D02*
X178193296Y-95930980D01*
X177955200Y-94883361D02*
X177717105Y-95597647D01*
X178336153Y-95597647D01*
%TO.C,D3*%
X176764724Y-94025980D02*
X176764724Y-93025980D01*
X177002820Y-93025980D01*
X177145677Y-93073600D01*
X177240915Y-93168838D01*
X177288534Y-93264076D01*
X177336153Y-93454552D01*
X177336153Y-93597409D01*
X177288534Y-93787885D01*
X177240915Y-93883123D01*
X177145677Y-93978361D01*
X177002820Y-94025980D01*
X176764724Y-94025980D01*
X177669486Y-93025980D02*
X178288534Y-93025980D01*
X177955200Y-93406933D01*
X178098058Y-93406933D01*
X178193296Y-93454552D01*
X178240915Y-93502171D01*
X178288534Y-93597409D01*
X178288534Y-93835504D01*
X178240915Y-93930742D01*
X178193296Y-93978361D01*
X178098058Y-94025980D01*
X177812343Y-94025980D01*
X177717105Y-93978361D01*
X177669486Y-93930742D01*
%TO.C,D2*%
X176764724Y-92120980D02*
X176764724Y-91120980D01*
X177002820Y-91120980D01*
X177145677Y-91168600D01*
X177240915Y-91263838D01*
X177288534Y-91359076D01*
X177336153Y-91549552D01*
X177336153Y-91692409D01*
X177288534Y-91882885D01*
X177240915Y-91978123D01*
X177145677Y-92073361D01*
X177002820Y-92120980D01*
X176764724Y-92120980D01*
X177717105Y-91216219D02*
X177764724Y-91168600D01*
X177859962Y-91120980D01*
X178098058Y-91120980D01*
X178193296Y-91168600D01*
X178240915Y-91216219D01*
X178288534Y-91311457D01*
X178288534Y-91406695D01*
X178240915Y-91549552D01*
X177669486Y-92120980D01*
X178288534Y-92120980D01*
%TO.C,C5*%
X179903333Y-106277142D02*
X179855714Y-106324761D01*
X179712857Y-106372380D01*
X179617619Y-106372380D01*
X179474761Y-106324761D01*
X179379523Y-106229523D01*
X179331904Y-106134285D01*
X179284285Y-105943809D01*
X179284285Y-105800952D01*
X179331904Y-105610476D01*
X179379523Y-105515238D01*
X179474761Y-105420000D01*
X179617619Y-105372380D01*
X179712857Y-105372380D01*
X179855714Y-105420000D01*
X179903333Y-105467619D01*
X180808095Y-105372380D02*
X180331904Y-105372380D01*
X180284285Y-105848571D01*
X180331904Y-105800952D01*
X180427142Y-105753333D01*
X180665238Y-105753333D01*
X180760476Y-105800952D01*
X180808095Y-105848571D01*
X180855714Y-105943809D01*
X180855714Y-106181904D01*
X180808095Y-106277142D01*
X180760476Y-106324761D01*
X180665238Y-106372380D01*
X180427142Y-106372380D01*
X180331904Y-106324761D01*
X180284285Y-106277142D01*
%TO.C,C4*%
X129676142Y-90717666D02*
X129723761Y-90765285D01*
X129771380Y-90908142D01*
X129771380Y-91003380D01*
X129723761Y-91146238D01*
X129628523Y-91241476D01*
X129533285Y-91289095D01*
X129342809Y-91336714D01*
X129199952Y-91336714D01*
X129009476Y-91289095D01*
X128914238Y-91241476D01*
X128819000Y-91146238D01*
X128771380Y-91003380D01*
X128771380Y-90908142D01*
X128819000Y-90765285D01*
X128866619Y-90717666D01*
X129104714Y-89860523D02*
X129771380Y-89860523D01*
X128723761Y-90098619D02*
X129438047Y-90336714D01*
X129438047Y-89717666D01*
%TO.C,C1*%
X126787142Y-85916666D02*
X126834761Y-85964285D01*
X126882380Y-86107142D01*
X126882380Y-86202380D01*
X126834761Y-86345238D01*
X126739523Y-86440476D01*
X126644285Y-86488095D01*
X126453809Y-86535714D01*
X126310952Y-86535714D01*
X126120476Y-86488095D01*
X126025238Y-86440476D01*
X125930000Y-86345238D01*
X125882380Y-86202380D01*
X125882380Y-86107142D01*
X125930000Y-85964285D01*
X125977619Y-85916666D01*
X126882380Y-84964285D02*
X126882380Y-85535714D01*
X126882380Y-85250000D02*
X125882380Y-85250000D01*
X126025238Y-85345238D01*
X126120476Y-85440476D01*
X126168095Y-85535714D01*
%TD*%
M02*
