%TF.GenerationSoftware,KiCad,Pcbnew,5.1.6-1.fc32*%
%TF.CreationDate,2020-10-02T18:06:37+02:00*%
%TF.ProjectId,microFSETv4final,6d696372-6f46-4534-9554-763466696e61,rev?*%
%TF.SameCoordinates,Original*%
%TF.FileFunction,Profile,NP*%
%FSLAX46Y46*%
G04 Gerber Fmt 4.6, Leading zero omitted, Abs format (unit mm)*
G04 Created by KiCad (PCBNEW 5.1.6-1.fc32) date 2020-10-02 18:06:37*
%MOMM*%
%LPD*%
G01*
G04 APERTURE LIST*
%TA.AperFunction,Profile*%
%ADD10C,0.050000*%
%TD*%
G04 APERTURE END LIST*
D10*
X183134000Y-73179940D02*
X105191560Y-73179940D01*
X183134000Y-73179940D02*
X183134000Y-127531360D01*
X183134000Y-127531360D02*
X105191560Y-127530860D01*
X105191560Y-73179940D02*
X105191560Y-127530860D01*
M02*
