M48
; DRILL file {KiCad 5.1.6-1.fc32} date Mon Sep 14 18:22:14 2020
; FORMAT={-:-/ absolute / metric / decimal}
; #@! TF.CreationDate,2020-09-14T18:22:14+02:00
; #@! TF.GenerationSoftware,Kicad,Pcbnew,5.1.6-1.fc32
; #@! TF.FileFunction,Plated,1,2,PTH
FMAT,2
METRIC
T1C0.800
T2C1.000
T3C1.300
%
G90
G05
T1
X112.204Y-95.011
X123.307Y-98.174
X124.793Y-96.708
X124.833Y-99.38
X125.402Y-82.857
X134.366Y-88.753
X136.088Y-93.449
X136.276Y-89.718
X136.309Y-101.351
X138.557Y-90.924
X146.939Y-90.335
X150.508Y-81.789
X162.128Y-82.161
X162.888Y-79.698
X163.116Y-94.676
X167.305Y-112.766
X169.939Y-91.953
X164.916Y-93.883
X169.916Y-93.883
T3
X149.106Y-79.731
X149.106Y-84.731
X154.106Y-82.231
X160.271Y-79.695
X160.271Y-84.695
X165.271Y-82.195
T2
G00X106.538Y-90.276
M15
G01X106.738Y-90.276
M16
G05
G00X106.538Y-96.876
M15
G01X106.738Y-96.876
M16
G05
T0
M30
