EESchema Schematic File Version 4
EELAYER 30 0
EELAYER END
$Descr A4 11693 8268
encoding utf-8
Sheet 1 1
Title ""
Date ""
Rev ""
Comp ""
Comment1 ""
Comment2 ""
Comment3 ""
Comment4 ""
$EndDescr
$Comp
L MCU_Microchip_ATmega:ATmega32U4-AU U1
U 1 1 5F3AA5A3
P 3800 3950
F 0 "U1" H 3800 4150 50  0000 C CNN
F 1 "ATmega32U4-AU" H 3800 4050 50  0000 C CNN
F 2 "Package_QFP:TQFP-44_10x10mm_P0.8mm" H 3800 3950 50  0001 C CIN
F 3 "http://ww1.microchip.com/downloads/en/DeviceDoc/Atmel-7766-8-bit-AVR-ATmega16U4-32U4_Datasheet.pdf" H 3800 3950 50  0001 C CNN
	1    3800 3950
	1    0    0    -1  
$EndComp
$Comp
L Connector:USB_B_Micro J1
U 1 1 5F3AB2E9
P 1050 3450
F 0 "J1" H 1107 3917 50  0000 C CNN
F 1 "USB_B_Micro" H 1107 3826 50  0000 C CNN
F 2 "microFSET:USB_Micro-B_Amphenol_10118193-0001LF-Fräse" H 1200 3400 50  0001 C CNN
F 3 "~" H 1200 3400 50  0001 C CNN
	1    1050 3450
	1    0    0    -1  
$EndComp
$Comp
L power:GND #PWR0101
U 1 1 5F3AB9F3
P 3800 5750
F 0 "#PWR0101" H 3800 5500 50  0001 C CNN
F 1 "GND" H 3805 5577 50  0000 C CNN
F 2 "" H 3800 5750 50  0001 C CNN
F 3 "" H 3800 5750 50  0001 C CNN
	1    3800 5750
	1    0    0    -1  
$EndComp
$Comp
L power:GND #PWR0102
U 1 1 5F3B7B52
P 1050 3850
F 0 "#PWR0102" H 1050 3600 50  0001 C CNN
F 1 "GND" H 1055 3677 50  0000 C CNN
F 2 "" H 1050 3850 50  0001 C CNN
F 3 "" H 1050 3850 50  0001 C CNN
	1    1050 3850
	1    0    0    -1  
$EndComp
$Comp
L power:+5V #PWR0103
U 1 1 5F3B7F86
P 1650 3250
F 0 "#PWR0103" H 1650 3100 50  0001 C CNN
F 1 "+5V" H 1665 3423 50  0000 C CNN
F 2 "" H 1650 3250 50  0001 C CNN
F 3 "" H 1650 3250 50  0001 C CNN
	1    1650 3250
	1    0    0    -1  
$EndComp
NoConn ~ 1350 3650
NoConn ~ 950  3850
$Comp
L power:+5V #PWR0104
U 1 1 5F3C7B3A
P 3800 2150
F 0 "#PWR0104" H 3800 2000 50  0001 C CNN
F 1 "+5V" H 3815 2323 50  0000 C CNN
F 2 "" H 3800 2150 50  0001 C CNN
F 3 "" H 3800 2150 50  0001 C CNN
	1    3800 2150
	1    0    0    -1  
$EndComp
Wire Wire Line
	3800 2150 3700 2150
Connection ~ 3800 2150
Wire Wire Line
	3800 2150 3900 2150
Wire Wire Line
	3800 5750 3700 5750
Connection ~ 3800 5750
$Comp
L Device:C C4
U 1 1 5F3CA255
P 2950 3900
F 0 "C4" H 3065 3946 50  0000 L CNN
F 1 "1u" H 3065 3855 50  0000 L CNN
F 2 "Capacitor_SMD:C_0603_1608Metric" H 2988 3750 50  0001 C CNN
F 3 "~" H 2950 3900 50  0001 C CNN
	1    2950 3900
	1    0    0    -1  
$EndComp
Wire Wire Line
	3200 3750 2950 3750
$Comp
L power:GND #PWR0105
U 1 1 5F3CAC5E
P 2950 4050
F 0 "#PWR0105" H 2950 3800 50  0001 C CNN
F 1 "GND" H 2955 3877 50  0000 C CNN
F 2 "" H 2950 4050 50  0001 C CNN
F 3 "" H 2950 4050 50  0001 C CNN
	1    2950 4050
	1    0    0    -1  
$EndComp
$Comp
L Switch:SW_Push SW2
U 1 1 5F3CC6F8
P 6000 5600
F 0 "SW2" H 5800 5700 50  0000 L CNN
F 1 "SW_Push" H 6000 5794 50  0001 C CNN
F 2 "microFSET:SW_Push_1P1T_C&K_PTS647" H 6000 5800 50  0001 C CNN
F 3 "~" H 6000 5800 50  0001 C CNN
	1    6000 5600
	1    0    0    -1  
$EndComp
$Comp
L Device:LED D2
U 1 1 5F3D209B
P 8100 950
F 0 "D2" H 8150 1000 50  0000 L CNN
F 1 "LED" H 8150 900 50  0000 L CNN
F 2 "LED_SMD:LED_0603_1608Metric" H 8100 950 50  0001 C CNN
F 3 "~" H 8100 950 50  0001 C CNN
	1    8100 950 
	1    0    0    -1  
$EndComp
$Comp
L power:+5V #PWR0108
U 1 1 5F3FAAF7
P 3200 3250
F 0 "#PWR0108" H 3200 3100 50  0001 C CNN
F 1 "+5V" V 3215 3378 50  0000 L CNN
F 2 "" H 3200 3250 50  0001 C CNN
F 3 "" H 3200 3250 50  0001 C CNN
	1    3200 3250
	0    -1   -1   0   
$EndComp
$Comp
L Device:R_POT RV1
U 1 1 5F401674
P 9200 5950
F 0 "RV1" H 9131 5996 50  0000 R CNN
F 1 "30K" H 9131 5905 50  0000 R CNN
F 2 "Potentiometer_THT:Potentiometer_ACP_CA9-H5_Horizontal" H 9200 5950 50  0001 C CNN
F 3 "~" H 9200 5950 50  0001 C CNN
	1    9200 5950
	1    0    0    -1  
$EndComp
$Comp
L Device:R_POT RV2
U 1 1 5F40194A
P 9850 5950
F 0 "RV2" H 9780 5996 50  0000 R CNN
F 1 "30K" H 9780 5905 50  0000 R CNN
F 2 "Potentiometer_THT:Potentiometer_ACP_CA9-H5_Horizontal" H 9850 5950 50  0001 C CNN
F 3 "~" H 9850 5950 50  0001 C CNN
	1    9850 5950
	1    0    0    -1  
$EndComp
$Comp
L Switch:SW_Push SW1
U 1 1 5F403933
P 3000 2450
F 0 "SW1" H 3000 2735 50  0000 C CNN
F 1 "SW_Push" H 3000 2644 50  0000 C CNN
F 2 "microFSET:SW_Push_1P1T_C&K_PTS647" H 3000 2650 50  0001 C CNN
F 3 "~" H 3000 2650 50  0001 C CNN
	1    3000 2450
	1    0    0    -1  
$EndComp
$Comp
L power:GND #PWR0109
U 1 1 5F409087
P 2800 2450
F 0 "#PWR0109" H 2800 2200 50  0001 C CNN
F 1 "GND" V 2805 2322 50  0000 R CNN
F 2 "" H 2800 2450 50  0001 C CNN
F 3 "" H 2800 2450 50  0001 C CNN
	1    2800 2450
	0    1    1    0   
$EndComp
$Comp
L Device:Q_NMOS_DGS Q1
U 1 1 5F40F626
P 9350 5000
F 0 "Q1" H 9554 5046 50  0000 L CNN
F 1 "Q_NMOS_DGS" H 9554 4955 50  0000 L CNN
F 2 "Package_TO_SOT_SMD:SOT-23" H 9550 5100 50  0001 C CNN
F 3 "~" H 9350 5000 50  0001 C CNN
	1    9350 5000
	1    0    0    -1  
$EndComp
$Comp
L Device:R R1
U 1 1 5F433BE4
P 2300 3400
F 0 "R1" V 2200 3400 50  0000 C CNN
F 1 "22" V 2300 3400 50  0000 C CNN
F 2 "Resistor_SMD:R_0603_1608Metric" V 2230 3400 50  0001 C CNN
F 3 "~" H 2300 3400 50  0001 C CNN
	1    2300 3400
	0    1    1    0   
$EndComp
$Comp
L Device:R R2
U 1 1 5F43433E
P 2300 3600
F 0 "R2" V 2200 3600 50  0000 C CNN
F 1 "22" V 2300 3600 50  0000 C CNN
F 2 "Resistor_SMD:R_0603_1608Metric" V 2230 3600 50  0001 C CNN
F 3 "~" H 2300 3600 50  0001 C CNN
	1    2300 3600
	0    1    1    0   
$EndComp
Wire Wire Line
	1350 3450 1950 3450
Wire Wire Line
	1950 3450 1950 3400
Wire Wire Line
	1950 3400 2150 3400
Wire Wire Line
	1350 3550 1950 3550
Wire Wire Line
	1950 3550 1950 3600
Wire Wire Line
	1950 3600 2150 3600
Wire Wire Line
	2450 3400 2650 3400
Wire Wire Line
	2650 3400 2650 3450
Wire Wire Line
	2650 3450 3200 3450
Wire Wire Line
	2450 3600 2650 3600
Wire Wire Line
	2650 3600 2650 3550
Wire Wire Line
	2650 3550 3200 3550
$Comp
L power:+5V #PWR0110
U 1 1 5F45BBE8
P 1100 1950
F 0 "#PWR0110" H 1100 1800 50  0001 C CNN
F 1 "+5V" H 1115 2123 50  0000 C CNN
F 2 "" H 1100 1950 50  0001 C CNN
F 3 "" H 1100 1950 50  0001 C CNN
	1    1100 1950
	1    0    0    -1  
$EndComp
$Comp
L Device:C C1
U 1 1 5F45CD68
P 1100 2100
F 0 "C1" H 1215 2146 50  0000 L CNN
F 1 "1u" H 1215 2055 50  0000 L CNN
F 2 "Capacitor_SMD:C_0603_1608Metric" H 1138 1950 50  0001 C CNN
F 3 "~" H 1100 2100 50  0001 C CNN
	1    1100 2100
	1    0    0    -1  
$EndComp
$Comp
L power:GND #PWR0111
U 1 1 5F45D175
P 1100 2250
F 0 "#PWR0111" H 1100 2000 50  0001 C CNN
F 1 "GND" H 1105 2077 50  0000 C CNN
F 2 "" H 1100 2250 50  0001 C CNN
F 3 "" H 1100 2250 50  0001 C CNN
	1    1100 2250
	1    0    0    -1  
$EndComp
Wire Wire Line
	4400 2550 4450 2550
Wire Wire Line
	4400 2650 4500 2650
Wire Wire Line
	4400 2750 4550 2750
Wire Wire Line
	4400 2850 4600 2850
Wire Wire Line
	4400 2950 4650 2950
Wire Wire Line
	4400 3050 4700 3050
Wire Wire Line
	4400 3150 4750 3150
Wire Wire Line
	4400 3350 4400 3250
Wire Wire Line
	4400 3450 4450 3450
Wire Wire Line
	4450 3450 4450 3350
Wire Wire Line
	4400 3650 4500 3650
Wire Wire Line
	4500 3650 4500 3450
Wire Wire Line
	4500 3450 5350 3450
Wire Wire Line
	4400 3750 4550 3750
Wire Wire Line
	4550 3750 4550 3550
Wire Wire Line
	4550 3550 5400 3550
Wire Wire Line
	4600 3850 4600 3650
Wire Wire Line
	4600 3650 5450 3650
Wire Wire Line
	4400 3850 4600 3850
Wire Wire Line
	4400 3950 4650 3950
Wire Wire Line
	4650 3950 4650 3750
Wire Wire Line
	4650 3750 5500 3750
Wire Wire Line
	4400 4050 4700 4050
Wire Wire Line
	4700 4050 4700 3850
Wire Wire Line
	4700 3850 5550 3850
Wire Wire Line
	4400 4150 4750 4150
Wire Wire Line
	4750 4150 4750 3950
Wire Wire Line
	4750 3950 5600 3950
Wire Wire Line
	4400 4250 4800 4250
Wire Wire Line
	4800 4250 4800 4050
Wire Wire Line
	4800 4050 5650 4050
Wire Wire Line
	4400 4350 4850 4350
Wire Wire Line
	4850 4350 4850 4150
Wire Wire Line
	4850 4150 5700 4150
Wire Wire Line
	4400 4550 4900 4550
Wire Wire Line
	4900 4550 4900 4250
Wire Wire Line
	4400 4650 4950 4650
Wire Wire Line
	4950 4650 4950 4350
Wire Wire Line
	4400 4850 5000 4850
Wire Wire Line
	5000 4850 5000 4450
Wire Wire Line
	4400 4950 5050 4950
Wire Wire Line
	5050 4950 5050 4550
Wire Wire Line
	4400 5050 5100 5050
Wire Wire Line
	5100 5050 5100 4650
Wire Wire Line
	4400 5150 5150 5150
Wire Wire Line
	5150 5150 5150 4750
Wire Wire Line
	4400 5250 5200 5250
Wire Wire Line
	5200 5250 5200 4850
Wire Wire Line
	4400 5350 5250 5350
Wire Wire Line
	5250 5350 5250 4950
Text GLabel 3200 3050 0    50   Input ~ 0
AREF
$Comp
L power:GND #PWR0114
U 1 1 5F4AE44E
P 5950 2350
F 0 "#PWR0114" H 5950 2100 50  0001 C CNN
F 1 "GND" V 5955 2222 50  0000 R CNN
F 2 "" H 5950 2350 50  0001 C CNN
F 3 "" H 5950 2350 50  0001 C CNN
	1    5950 2350
	0    1    1    0   
$EndComp
$Comp
L Transistor_Array:ULN2803A U2
U 1 1 5F4B030D
P 5200 1450
F 0 "U2" H 5200 2017 50  0000 C CNN
F 1 "ULN2803A" H 5200 1926 50  0000 C CNN
F 2 "Package_SO:SOIC-18W_7.5x11.6mm_P1.27mm" H 5250 800 50  0001 L CNN
F 3 "http://www.ti.com/lit/ds/symlink/uln2803a.pdf" H 5300 1250 50  0001 C CNN
	1    5200 1450
	1    0    0    -1  
$EndComp
Wire Wire Line
	4400 2450 4400 1250
Wire Wire Line
	4400 1250 4800 1250
Wire Wire Line
	4450 2550 4450 1350
Wire Wire Line
	4450 1350 4800 1350
Wire Wire Line
	4500 2650 4500 1450
Wire Wire Line
	4500 1450 4800 1450
Wire Wire Line
	4550 2750 4550 1550
Wire Wire Line
	4550 1550 4800 1550
Wire Wire Line
	4600 2850 4600 1650
Wire Wire Line
	4600 1650 4800 1650
Wire Wire Line
	4650 2950 4650 1750
Wire Wire Line
	4650 1750 4800 1750
Wire Wire Line
	4700 3050 4700 1850
Wire Wire Line
	4700 1850 4800 1850
Wire Wire Line
	4750 3150 4750 1950
Wire Wire Line
	4750 1950 4800 1950
$Comp
L Device:R_Pack04 RN1
U 1 1 5F4EB64C
P 7200 1450
F 0 "RN1" V 6783 1450 50  0000 C CNN
F 1 "1k" V 6874 1450 50  0000 C CNN
F 2 "Resistor_SMD:R_Array_Concave_4x0603" V 7475 1450 50  0001 C CNN
F 3 "~" H 7200 1450 50  0001 C CNN
	1    7200 1450
	0    1    1    0   
$EndComp
$Comp
L Device:R_Pack04 RN2
U 1 1 5F50AD26
P 7200 1850
F 0 "RN2" V 7550 1850 50  0000 C CNN
F 1 "1k" V 7450 1850 50  0000 C CNN
F 2 "Resistor_SMD:R_Array_Concave_4x0603" V 7475 1850 50  0001 C CNN
F 3 "~" H 7200 1850 50  0001 C CNN
	1    7200 1850
	0    1    1    0   
$EndComp
$Comp
L Device:LED D3
U 1 1 5F5323EF
P 8100 1150
F 0 "D3" H 8150 1200 50  0000 L CNN
F 1 "LED" H 8150 1100 50  0000 L CNN
F 2 "LED_SMD:LED_0603_1608Metric" H 8100 1150 50  0001 C CNN
F 3 "~" H 8100 1150 50  0001 C CNN
	1    8100 1150
	1    0    0    -1  
$EndComp
$Comp
L Device:LED D4
U 1 1 5F533B5D
P 8100 1350
F 0 "D4" H 8150 1400 50  0000 L CNN
F 1 "LED" H 8150 1300 50  0000 L CNN
F 2 "LED_SMD:LED_0603_1608Metric" H 8100 1350 50  0001 C CNN
F 3 "~" H 8100 1350 50  0001 C CNN
	1    8100 1350
	1    0    0    -1  
$EndComp
$Comp
L Device:LED D5
U 1 1 5F533B63
P 8100 1550
F 0 "D5" H 8150 1600 50  0000 L CNN
F 1 "LED" H 8150 1500 50  0000 L CNN
F 2 "LED_SMD:LED_0603_1608Metric" H 8100 1550 50  0001 C CNN
F 3 "~" H 8100 1550 50  0001 C CNN
	1    8100 1550
	1    0    0    -1  
$EndComp
$Comp
L Device:LED D6
U 1 1 5F539EC5
P 8100 1750
F 0 "D6" H 8150 1800 50  0000 L CNN
F 1 "LED" H 8150 1700 50  0000 L CNN
F 2 "LED_SMD:LED_0603_1608Metric" H 8100 1750 50  0001 C CNN
F 3 "~" H 8100 1750 50  0001 C CNN
	1    8100 1750
	1    0    0    -1  
$EndComp
$Comp
L Device:LED D7
U 1 1 5F539ECB
P 8100 1950
F 0 "D7" H 8150 2000 50  0000 L CNN
F 1 "LED" H 8150 1900 50  0000 L CNN
F 2 "LED_SMD:LED_0603_1608Metric" H 8100 1950 50  0001 C CNN
F 3 "~" H 8100 1950 50  0001 C CNN
	1    8100 1950
	1    0    0    -1  
$EndComp
$Comp
L Device:LED D8
U 1 1 5F53CF7E
P 8100 2150
F 0 "D8" H 8150 2200 50  0000 L CNN
F 1 "LED" H 8150 2100 50  0000 L CNN
F 2 "LED_SMD:LED_0603_1608Metric" H 8100 2150 50  0001 C CNN
F 3 "~" H 8100 2150 50  0001 C CNN
	1    8100 2150
	1    0    0    -1  
$EndComp
$Comp
L Device:LED D9
U 1 1 5F53CF84
P 8100 2350
F 0 "D9" H 8150 2400 50  0000 L CNN
F 1 "LED" H 8150 2300 50  0000 L CNN
F 2 "LED_SMD:LED_0603_1608Metric" H 8100 2350 50  0001 C CNN
F 3 "~" H 8100 2350 50  0001 C CNN
	1    8100 2350
	1    0    0    -1  
$EndComp
Wire Wire Line
	8250 950  8600 950 
Wire Wire Line
	8600 1150 8250 1150
Wire Wire Line
	8250 1350 8600 1350
Wire Wire Line
	8600 1350 8600 1150
Connection ~ 8600 1150
Wire Wire Line
	8250 1550 8600 1550
Wire Wire Line
	8600 1550 8600 1350
Connection ~ 8600 1350
Connection ~ 8600 1550
Wire Wire Line
	8250 1750 8600 1750
Wire Wire Line
	8250 1950 8600 1950
Wire Wire Line
	8600 1950 8600 1750
Connection ~ 8600 1750
Wire Wire Line
	8250 2150 8600 2150
Wire Wire Line
	8600 2150 8600 1950
Connection ~ 8600 1950
Wire Wire Line
	8250 2350 8600 2350
Wire Wire Line
	8600 2350 8600 2150
Connection ~ 8600 2150
$Comp
L power:+5V #PWR0115
U 1 1 5F55DD21
P 8600 950
F 0 "#PWR0115" H 8600 800 50  0001 C CNN
F 1 "+5V" H 8615 1123 50  0000 C CNN
F 2 "" H 8600 950 50  0001 C CNN
F 3 "" H 8600 950 50  0001 C CNN
	1    8600 950 
	1    0    0    -1  
$EndComp
Connection ~ 8600 950 
Wire Wire Line
	8600 1550 8600 1750
$Comp
L power:GND #PWR0116
U 1 1 5F5DBC69
P 5200 2150
F 0 "#PWR0116" H 5200 1900 50  0001 C CNN
F 1 "GND" H 5205 1977 50  0000 C CNN
F 2 "" H 5200 2150 50  0001 C CNN
F 3 "" H 5200 2150 50  0001 C CNN
	1    5200 2150
	1    0    0    -1  
$EndComp
$Comp
L power:+5V #PWR0117
U 1 1 5F607F86
P 5600 1150
F 0 "#PWR0117" H 5600 1000 50  0001 C CNN
F 1 "+5V" H 5615 1323 50  0000 C CNN
F 2 "" H 5600 1150 50  0001 C CNN
F 3 "" H 5600 1150 50  0001 C CNN
	1    5600 1150
	1    0    0    -1  
$EndComp
$Comp
L Device:C C5
U 1 1 5F60B077
P 8600 2500
F 0 "C5" H 8485 2454 50  0000 R CNN
F 1 "1u" H 8485 2545 50  0000 R CNN
F 2 "Capacitor_SMD:C_0603_1608Metric" H 8638 2350 50  0001 C CNN
F 3 "~" H 8600 2500 50  0001 C CNN
	1    8600 2500
	-1   0    0    1   
$EndComp
Connection ~ 8600 2350
Wire Wire Line
	8600 950  8600 1150
$Comp
L power:GND #PWR0118
U 1 1 5F6203CD
P 8600 2650
F 0 "#PWR0118" H 8600 2400 50  0001 C CNN
F 1 "GND" H 8605 2477 50  0000 C CNN
F 2 "" H 8600 2650 50  0001 C CNN
F 3 "" H 8600 2650 50  0001 C CNN
	1    8600 2650
	1    0    0    -1  
$EndComp
Wire Wire Line
	7400 1450 7500 1450
Wire Wire Line
	7400 1250 7400 950 
Wire Wire Line
	7400 950  7950 950 
Wire Wire Line
	7400 1350 7450 1350
Wire Wire Line
	7450 1350 7450 1150
Wire Wire Line
	7450 1150 7950 1150
Wire Wire Line
	7500 1450 7500 1350
Wire Wire Line
	7500 1350 7950 1350
Wire Wire Line
	7400 1550 7950 1550
Wire Wire Line
	7600 1650 7600 1750
Wire Wire Line
	7600 1750 7950 1750
Wire Wire Line
	7400 1650 7600 1650
Wire Wire Line
	7400 1750 7550 1750
Wire Wire Line
	7550 1750 7550 1950
Wire Wire Line
	7550 1950 7950 1950
Wire Wire Line
	7400 1850 7500 1850
Wire Wire Line
	7500 1850 7500 2150
Wire Wire Line
	7500 2150 7950 2150
Wire Wire Line
	7400 1950 7400 2350
Wire Wire Line
	7400 2350 7950 2350
$Comp
L Switch:SW_Push SW3
U 1 1 5F70FA72
P 6000 5800
F 0 "SW3" H 5800 5900 50  0000 L CNN
F 1 "SW_Push" H 6000 5994 50  0001 C CNN
F 2 "microFSET:SW_Push_1P1T_C&K_PTS647" H 6000 6000 50  0001 C CNN
F 3 "~" H 6000 6000 50  0001 C CNN
	1    6000 5800
	1    0    0    -1  
$EndComp
$Comp
L Switch:SW_Push SW4
U 1 1 5F711D02
P 6000 6000
F 0 "SW4" H 5800 6100 50  0000 L CNN
F 1 "SW_Push" H 6000 6194 50  0001 C CNN
F 2 "microFSET:SW_Push_1P1T_C&K_PTS647" H 6000 6200 50  0001 C CNN
F 3 "~" H 6000 6200 50  0001 C CNN
	1    6000 6000
	1    0    0    -1  
$EndComp
$Comp
L Switch:SW_Push SW5
U 1 1 5F711D08
P 6000 6200
F 0 "SW5" H 5800 6300 50  0000 L CNN
F 1 "SW_Push" H 6000 6394 50  0001 C CNN
F 2 "microFSET:SW_Push_1P1T_C&K_PTS647" H 6000 6400 50  0001 C CNN
F 3 "~" H 6000 6400 50  0001 C CNN
	1    6000 6200
	1    0    0    -1  
$EndComp
$Comp
L Switch:SW_Push SW6
U 1 1 5F718DDB
P 6000 6400
F 0 "SW6" H 5800 6500 50  0000 L CNN
F 1 "SW_Push" H 6000 6594 50  0001 C CNN
F 2 "microFSET:SW_Push_1P1T_C&K_PTS647" H 6000 6600 50  0001 C CNN
F 3 "~" H 6000 6600 50  0001 C CNN
	1    6000 6400
	1    0    0    -1  
$EndComp
$Comp
L Switch:SW_Push SW7
U 1 1 5F718DE1
P 6000 6600
F 0 "SW7" H 5800 6700 50  0000 L CNN
F 1 "SW_Push" H 6000 6794 50  0001 C CNN
F 2 "microFSET:SW_Push_1P1T_C&K_PTS647" H 6000 6800 50  0001 C CNN
F 3 "~" H 6000 6800 50  0001 C CNN
	1    6000 6600
	1    0    0    -1  
$EndComp
$Comp
L Switch:SW_Push SW8
U 1 1 5F718DE7
P 6000 6800
F 0 "SW8" H 5800 6900 50  0000 L CNN
F 1 "SW_Push" H 6000 6994 50  0001 C CNN
F 2 "microFSET:SW_Push_1P1T_C&K_PTS647" H 6000 7000 50  0001 C CNN
F 3 "~" H 6000 7000 50  0001 C CNN
	1    6000 6800
	1    0    0    -1  
$EndComp
$Comp
L Switch:SW_Push SW9
U 1 1 5F718DED
P 6000 7000
F 0 "SW9" H 5800 7100 50  0000 L CNN
F 1 "SW_Push" H 6000 7194 50  0001 C CNN
F 2 "microFSET:SW_Push_1P1T_C&K_PTS647" H 6000 7200 50  0001 C CNN
F 3 "~" H 6000 7200 50  0001 C CNN
	1    6000 7000
	1    0    0    -1  
$EndComp
Wire Wire Line
	5800 7000 5700 7000
Wire Wire Line
	5700 7000 5700 4150
Wire Wire Line
	5800 6800 5650 6800
Wire Wire Line
	5650 6800 5650 4050
Wire Wire Line
	5800 6600 5600 6600
Wire Wire Line
	5600 6600 5600 3950
Wire Wire Line
	5800 6400 5550 6400
Wire Wire Line
	5550 6400 5550 3850
Wire Wire Line
	5800 6200 5500 6200
Wire Wire Line
	5500 6200 5500 3750
Wire Wire Line
	5800 6000 5450 6000
Wire Wire Line
	5450 6000 5450 3650
Wire Wire Line
	5800 5800 5400 5800
Wire Wire Line
	5400 5800 5400 3550
Wire Wire Line
	5800 5600 5350 5600
Wire Wire Line
	5350 5600 5350 3450
Wire Wire Line
	6200 5600 6200 5800
Wire Wire Line
	6200 5800 6200 6000
Connection ~ 6200 5800
Wire Wire Line
	6200 6000 6200 6200
Connection ~ 6200 6000
Connection ~ 6200 6200
Connection ~ 6200 6400
Wire Wire Line
	6200 6400 6200 6600
Connection ~ 6200 6600
Wire Wire Line
	6200 6600 6200 6800
Connection ~ 6200 6800
Wire Wire Line
	6200 6800 6200 7000
$Comp
L power:GND #PWR0121
U 1 1 5F7A2474
P 6200 7000
F 0 "#PWR0121" H 6200 6750 50  0001 C CNN
F 1 "GND" H 6205 6827 50  0000 C CNN
F 2 "" H 6200 7000 50  0001 C CNN
F 3 "" H 6200 7000 50  0001 C CNN
	1    6200 7000
	1    0    0    -1  
$EndComp
Connection ~ 6200 7000
Wire Wire Line
	6200 6200 6200 6400
Text GLabel 4400 3250 2    50   Input ~ 0
Piezo
Text GLabel 9150 5000 0    50   Input ~ 0
Piezo
$Comp
L Device:Buzzer BZ1
U 1 1 5F7FD8A9
P 9550 4450
F 0 "BZ1" H 9702 4479 50  0000 L CNN
F 1 "Buzzer" H 9702 4388 50  0000 L CNN
F 2 "microFSET:Buzzer_12.6x6.9" V 9525 4550 50  0001 C CNN
F 3 "~" V 9525 4550 50  0001 C CNN
	1    9550 4450
	1    0    0    -1  
$EndComp
Wire Wire Line
	9450 4800 9450 4750
$Comp
L Device:LED D10
U 1 1 5F835D69
P 8250 3850
F 0 "D10" H 8300 3900 50  0000 L CNN
F 1 "LED" H 8300 3800 50  0000 L CNN
F 2 "LED_SMD:LED_0603_1608Metric" H 8250 3850 50  0001 C CNN
F 3 "~" H 8250 3850 50  0001 C CNN
	1    8250 3850
	-1   0    0    1   
$EndComp
$Comp
L Device:LED D11
U 1 1 5F835D6F
P 8250 4050
F 0 "D11" H 8300 4100 50  0000 L CNN
F 1 "LED" H 8300 4000 50  0000 L CNN
F 2 "LED_SMD:LED_0603_1608Metric" H 8250 4050 50  0001 C CNN
F 3 "~" H 8250 4050 50  0001 C CNN
	1    8250 4050
	-1   0    0    1   
$EndComp
$Comp
L Device:R_Pack04 RN3
U 1 1 5F865295
P 8900 4450
F 0 "RN3" V 9250 4450 50  0000 C CNN
F 1 "1k" V 9150 4450 50  0000 C CNN
F 2 "Resistor_SMD:R_Array_Concave_4x0603" V 9175 4450 50  0001 C CNN
F 3 "~" H 8900 4450 50  0001 C CNN
	1    8900 4450
	1    0    0    -1  
$EndComp
Wire Wire Line
	9450 4150 9000 4150
Wire Wire Line
	9000 4150 9000 4250
Wire Wire Line
	8900 4250 8900 4150
Wire Wire Line
	8900 4150 9000 4150
Connection ~ 9000 4150
Wire Wire Line
	8900 4650 8900 4750
Wire Wire Line
	8900 4750 9000 4750
Connection ~ 9450 4750
Wire Wire Line
	9450 4750 9450 4550
Wire Wire Line
	9000 4650 9000 4750
Connection ~ 9000 4750
Wire Wire Line
	9000 4750 9450 4750
Wire Wire Line
	9450 4150 9450 4350
$Comp
L power:+5V #PWR0122
U 1 1 5F8C5853
P 9450 4150
F 0 "#PWR0122" H 9450 4000 50  0001 C CNN
F 1 "+5V" H 9465 4323 50  0000 C CNN
F 2 "" H 9450 4150 50  0001 C CNN
F 3 "" H 9450 4150 50  0001 C CNN
	1    9450 4150
	1    0    0    -1  
$EndComp
Connection ~ 9450 4150
$Comp
L power:+5V #PWR0123
U 1 1 5F93D268
P 7950 3700
F 0 "#PWR0123" H 7950 3550 50  0001 C CNN
F 1 "+5V" H 7965 3873 50  0000 C CNN
F 2 "" H 7950 3700 50  0001 C CNN
F 3 "" H 7950 3700 50  0001 C CNN
	1    7950 3700
	1    0    0    -1  
$EndComp
Wire Wire Line
	8100 3850 7950 3850
Wire Wire Line
	7950 3850 7950 3700
Wire Wire Line
	8100 4050 7950 4050
Wire Wire Line
	7950 4050 7950 3850
Connection ~ 7950 3850
Wire Wire Line
	8400 3850 8800 3850
Wire Wire Line
	8800 3850 8800 4250
Wire Wire Line
	8400 4050 8700 4050
Wire Wire Line
	8700 4050 8700 4250
$Comp
L power:GND #PWR0124
U 1 1 5F97A727
P 8800 4650
F 0 "#PWR0124" H 8800 4400 50  0001 C CNN
F 1 "GND" H 8805 4477 50  0000 C CNN
F 2 "" H 8800 4650 50  0001 C CNN
F 3 "" H 8800 4650 50  0001 C CNN
	1    8800 4650
	1    0    0    -1  
$EndComp
$Comp
L power:GND #PWR0125
U 1 1 5F97A9A7
P 9450 5200
F 0 "#PWR0125" H 9450 4950 50  0001 C CNN
F 1 "GND" H 9455 5027 50  0000 C CNN
F 2 "" H 9450 5200 50  0001 C CNN
F 3 "" H 9450 5200 50  0001 C CNN
	1    9450 5200
	1    0    0    -1  
$EndComp
Text GLabel 8700 4650 3    50   Input ~ 0
PC7
Text GLabel 4450 3350 2    50   Input ~ 0
PC7
$Comp
L power:+5V #PWR0126
U 1 1 5F9DE94E
P 9200 5800
F 0 "#PWR0126" H 9200 5650 50  0001 C CNN
F 1 "+5V" H 9215 5973 50  0000 C CNN
F 2 "" H 9200 5800 50  0001 C CNN
F 3 "" H 9200 5800 50  0001 C CNN
	1    9200 5800
	1    0    0    -1  
$EndComp
$Comp
L power:+5V #PWR0127
U 1 1 5F9DED3E
P 9850 5800
F 0 "#PWR0127" H 9850 5650 50  0001 C CNN
F 1 "+5V" H 9865 5973 50  0000 C CNN
F 2 "" H 9850 5800 50  0001 C CNN
F 3 "" H 9850 5800 50  0001 C CNN
	1    9850 5800
	1    0    0    -1  
$EndComp
$Comp
L power:GND #PWR0128
U 1 1 5F9EC539
P 9200 6100
F 0 "#PWR0128" H 9200 5850 50  0001 C CNN
F 1 "GND" H 9205 5927 50  0000 C CNN
F 2 "" H 9200 6100 50  0001 C CNN
F 3 "" H 9200 6100 50  0001 C CNN
	1    9200 6100
	1    0    0    -1  
$EndComp
$Comp
L power:GND #PWR0129
U 1 1 5F9EC7D4
P 9850 6100
F 0 "#PWR0129" H 9850 5850 50  0001 C CNN
F 1 "GND" H 9855 5927 50  0000 C CNN
F 2 "" H 9850 6100 50  0001 C CNN
F 3 "" H 9850 6100 50  0001 C CNN
	1    9850 6100
	1    0    0    -1  
$EndComp
Text GLabel 9800 1300 0    50   Input ~ 0
PF0
Text GLabel 9350 5950 2    50   Input ~ 0
PF1
Text GLabel 4550 4850 2    50   Input ~ 0
PF0
Text GLabel 4550 4950 2    50   Input ~ 0
PF1
Wire Notes Line
	4250 500  4250 2300
Wire Notes Line
	4250 2300 7000 2300
Wire Notes Line
	7000 2300 7000 2950
Wire Notes Line
	7000 2950 9200 2950
Wire Notes Line
	9200 2950 9200 500 
Text Notes 4300 600  0    50   ~ 0
LEDs + Treiber (500mA)
Wire Notes Line
	7500 5550 10250 5550
Wire Notes Line
	10250 3450 7500 3450
Text Notes 8750 3550 0    50   ~ 0
Buzzer
Wire Notes Line
	7500 6500 10250 6500
Wire Notes Line
	7500 3450 7500 6500
Wire Notes Line
	10250 3450 10250 6500
Text Notes 7550 5650 0    50   ~ 0
Potentiometer
Wire Notes Line
	5250 5400 5250 7300
Wire Notes Line
	5250 7300 6450 7300
Wire Notes Line
	6450 7300 6450 5400
Wire Notes Line
	5250 5400 6450 5400
Text Notes 5300 7250 0    50   ~ 0
Taster
Wire Notes Line
	650  4150 1800 4150
Wire Notes Line
	1800 4150 1800 2800
Wire Notes Line
	1800 2800 650  2800
Wire Notes Line
	650  2800 650  4150
Text Notes 700  2900 0    50   ~ 0
USB
Text Notes 2850 1850 0    118  ~ 0
Microcontroller
$Comp
L Device:R R3
U 1 1 5F42AE33
P 10350 1500
F 0 "R3" H 10280 1454 50  0000 R CNN
F 1 "500" H 10280 1545 50  0000 R CNN
F 2 "Resistor_SMD:R_0603_1608Metric" V 10280 1500 50  0001 C CNN
F 3 "~" H 10350 1500 50  0001 C CNN
	1    10350 1500
	-1   0    0    1   
$EndComp
$Comp
L Device:Q_Photo_NPN Q2
U 1 1 5F4380B1
P 10250 1050
F 0 "Q2" H 10440 1096 50  0000 L CNN
F 1 "1541201NC3060" H 10440 1005 50  0000 L CNN
F 2 "LED_SMD:LED_1206_3216Metric" H 10450 1150 50  0001 C CNN
F 3 "~" H 10250 1050 50  0001 C CNN
	1    10250 1050
	1    0    0    -1  
$EndComp
$Comp
L power:+5V #PWR0130
U 1 1 5F47A4B1
P 10350 850
F 0 "#PWR0130" H 10350 700 50  0001 C CNN
F 1 "+5V" H 10365 1023 50  0000 C CNN
F 2 "" H 10350 850 50  0001 C CNN
F 3 "" H 10350 850 50  0001 C CNN
	1    10350 850 
	1    0    0    -1  
$EndComp
$Comp
L power:GND #PWR0131
U 1 1 5F47B161
P 10350 1650
F 0 "#PWR0131" H 10350 1400 50  0001 C CNN
F 1 "GND" H 10355 1477 50  0000 C CNN
F 2 "" H 10350 1650 50  0001 C CNN
F 3 "" H 10350 1650 50  0001 C CNN
	1    10350 1650
	1    0    0    -1  
$EndComp
Wire Wire Line
	10350 1250 10350 1300
Wire Wire Line
	10350 1300 9800 1300
Connection ~ 10350 1300
Wire Wire Line
	10350 1300 10350 1350
Text GLabel 4550 5050 2    50   Input ~ 0
PF4
Text GLabel 10000 5950 2    50   Input ~ 0
PF4
Wire Notes Line
	9200 1950 11200 1950
Wire Notes Line
	11200 1950 11200 500 
Wire Notes Line
	4250 500  11200 500 
Text Notes 9250 600  0    50   ~ 0
Phototransistor
Text Label 1500 3450 0    61   ~ 0
D+
Text Label 1500 3550 0    61   ~ 0
D-
Text Label 2800 3450 0    61   ~ 0
Dr+
Text Label 2800 3550 0    61   ~ 0
Dr-
$Comp
L Device:Resonator Y1
U 1 1 5F445F4A
P 2600 2750
F 0 "Y1" V 2554 2860 50  0000 L CNN
F 1 "Resonator" V 2645 2860 50  0000 L CNN
F 2 "Crystal:Resonator_SMD_muRata_CSTxExxV-3Pin_3.0x1.1mm" H 2575 2750 50  0001 C CNN
F 3 "~" H 2575 2750 50  0001 C CNN
	1    2600 2750
	0    1    1    0   
$EndComp
Wire Wire Line
	2600 2900 2800 2900
Wire Wire Line
	2800 2900 2800 2850
Wire Wire Line
	2800 2850 3200 2850
Wire Wire Line
	2600 2600 2800 2600
Wire Wire Line
	2800 2600 2800 2650
Wire Wire Line
	2800 2650 3200 2650
$Comp
L power:GND #PWR0106
U 1 1 5F45F7A7
P 2400 2750
F 0 "#PWR0106" H 2400 2500 50  0001 C CNN
F 1 "GND" V 2405 2622 50  0000 R CNN
F 2 "" H 2400 2750 50  0001 C CNN
F 3 "" H 2400 2750 50  0001 C CNN
	1    2400 2750
	0    1    1    0   
$EndComp
$Comp
L Device:D_Schottky D1
U 1 1 5F4E9E8D
P 1500 3250
F 0 "D1" H 1500 3033 50  0000 C CNN
F 1 "D_Schottky" H 1500 3124 50  0000 C CNN
F 2 "Diode_SMD:D_SOD-523" H 1500 3250 50  0001 C CNN
F 3 "~" H 1500 3250 50  0001 C CNN
	1    1500 3250
	-1   0    0    1   
$EndComp
Wire Wire Line
	5600 1250 7000 1250
Wire Wire Line
	5600 1350 7000 1350
Wire Wire Line
	5600 1450 7000 1450
Wire Wire Line
	5600 1550 7000 1550
Wire Wire Line
	5600 1650 7000 1650
Wire Wire Line
	5600 1750 7000 1750
Wire Wire Line
	5600 1850 7000 1850
Wire Wire Line
	5600 1950 7000 1950
$EndSCHEMATC
