EESchema Schematic File Version 4
LIBS:microFSETrev0a-cache
EELAYER 26 0
EELAYER END
$Descr A4 11693 8268
encoding utf-8
Sheet 1 1
Title ""
Date ""
Rev ""
Comp ""
Comment1 ""
Comment2 ""
Comment3 ""
Comment4 ""
$EndDescr
$Comp
L MCU_Microchip_ATmega:ATmega32U4-AU U1
U 1 1 5D1E2CB6
P 5150 3400
F 0 "U1" H 4750 3400 50  0000 C CNN
F 1 "ATmega32U4-AU" H 5025 3300 50  0000 C CNN
F 2 "Housings_QFP:TQFP-44_10x10mm_Pitch0.8mm" H 5150 3400 50  0001 C CIN
F 3 "http://ww1.microchip.com/downloads/en/DeviceDoc/Atmel-7766-8-bit-AVR-ATmega16U4-32U4_Datasheet.pdf" H 5150 3400 50  0001 C CNN
	1    5150 3400
	1    0    0    -1  
$EndComp
$Comp
L Connector:USB_A J1
U 1 1 5D1E2F62
P 1725 2900
F 0 "J1" H 1780 3367 50  0000 C CNN
F 1 "USB_A" H 1780 3276 50  0000 C CNN
F 2 "Wickerlib:CONN-USB-A-PCB-TRACES" H 1875 2850 50  0001 C CNN
F 3 " ~" H 1875 2850 50  0001 C CNN
	1    1725 2900
	1    0    0    -1  
$EndComp
$Comp
L Device:C_Small C8
U 1 1 5D1E30A5
P 4375 3300
F 0 "C8" H 4283 3254 50  0000 R CNN
F 1 "1uF" H 4283 3345 50  0000 R CNN
F 2 "Capacitors_SMD:C_0805_HandSoldering" H 4375 3300 50  0001 C CNN
F 3 "~" H 4375 3300 50  0001 C CNN
	1    4375 3300
	-1   0    0    1   
$EndComp
Wire Wire Line
	4375 3200 4550 3200
$Comp
L power:GND #PWR0101
U 1 1 5D1E3236
P 4375 3400
F 0 "#PWR0101" H 4375 3150 50  0001 C CNN
F 1 "GND" H 4380 3227 50  0000 C CNN
F 2 "" H 4375 3400 50  0001 C CNN
F 3 "" H 4375 3400 50  0001 C CNN
	1    4375 3400
	1    0    0    -1  
$EndComp
Wire Wire Line
	5050 5200 5100 5200
$Comp
L power:GND #PWR0102
U 1 1 5D1E352B
P 5100 5300
F 0 "#PWR0102" H 5100 5050 50  0001 C CNN
F 1 "GND" H 5105 5127 50  0000 C CNN
F 2 "" H 5100 5300 50  0001 C CNN
F 3 "" H 5100 5300 50  0001 C CNN
	1    5100 5300
	1    0    0    -1  
$EndComp
Wire Wire Line
	5100 5300 5100 5200
Connection ~ 5100 5200
Wire Wire Line
	5100 5200 5150 5200
Wire Wire Line
	5250 1600 5150 1600
Connection ~ 5150 1600
Wire Wire Line
	5150 1600 5050 1600
$Comp
L Device:C_Small C7
U 1 1 5D1E371C
P 4300 2500
F 0 "C7" V 4350 2450 50  0000 R CNN
F 1 "100nF" V 4250 2450 50  0000 R CNN
F 2 "Capacitors_SMD:C_0603_HandSoldering" H 4300 2500 50  0001 C CNN
F 3 "~" H 4300 2500 50  0001 C CNN
	1    4300 2500
	0    -1   -1   0   
$EndComp
Wire Wire Line
	4400 2500 4550 2500
$Comp
L power:GND #PWR0103
U 1 1 5D1E38AD
P 4200 2500
F 0 "#PWR0103" H 4200 2250 50  0001 C CNN
F 1 "GND" V 4205 2372 50  0000 R CNN
F 2 "" H 4200 2500 50  0001 C CNN
F 3 "" H 4200 2500 50  0001 C CNN
	1    4200 2500
	0    1    1    0   
$EndComp
$Comp
L Device:C_Small C3
U 1 1 5D1E3955
P 4450 1250
F 0 "C3" H 4375 1200 50  0000 R CNN
F 1 "100nF" H 4375 1325 50  0000 R CNN
F 2 "Capacitors_SMD:C_0603_HandSoldering" H 4450 1250 50  0001 C CNN
F 3 "~" H 4450 1250 50  0001 C CNN
	1    4450 1250
	-1   0    0    1   
$EndComp
$Comp
L Device:C_Small C4
U 1 1 5D1E3B33
P 4775 1250
F 0 "C4" H 4700 1200 50  0000 R CNN
F 1 "100nF" H 4700 1325 50  0000 R CNN
F 2 "Capacitors_SMD:C_0603_HandSoldering" H 4775 1250 50  0001 C CNN
F 3 "~" H 4775 1250 50  0001 C CNN
	1    4775 1250
	-1   0    0    1   
$EndComp
Wire Wire Line
	4775 1150 4450 1150
Connection ~ 4450 1150
Wire Wire Line
	4450 1150 4125 1150
$Comp
L Device:C_Small C2
U 1 1 5D1E3BE7
P 4125 1250
F 0 "C2" H 4050 1200 50  0000 R CNN
F 1 "100nF" H 4050 1325 50  0000 R CNN
F 2 "Capacitors_SMD:C_0603_HandSoldering" H 4125 1250 50  0001 C CNN
F 3 "~" H 4125 1250 50  0001 C CNN
	1    4125 1250
	-1   0    0    1   
$EndComp
Connection ~ 4125 1150
Wire Wire Line
	4125 1150 3775 1150
$Comp
L Device:C_Small C1
U 1 1 5D1E3C23
P 3775 1250
F 0 "C1" H 3700 1200 50  0000 R CNN
F 1 "100nF" H 3700 1325 50  0000 R CNN
F 2 "Capacitors_SMD:C_0603_HandSoldering" H 3775 1250 50  0001 C CNN
F 3 "~" H 3775 1250 50  0001 C CNN
	1    3775 1250
	-1   0    0    1   
$EndComp
Wire Wire Line
	3775 1350 4125 1350
Connection ~ 4125 1350
Wire Wire Line
	4125 1350 4300 1350
Connection ~ 4450 1350
Wire Wire Line
	4450 1350 4775 1350
$Comp
L power:GND #PWR0104
U 1 1 5D1E3E2F
P 4300 1350
F 0 "#PWR0104" H 4300 1100 50  0001 C CNN
F 1 "GND" H 4305 1177 50  0000 C CNN
F 2 "" H 4300 1350 50  0001 C CNN
F 3 "" H 4300 1350 50  0001 C CNN
	1    4300 1350
	1    0    0    -1  
$EndComp
Connection ~ 4300 1350
Wire Wire Line
	4300 1350 4450 1350
Wire Wire Line
	5150 1150 5150 1600
Connection ~ 4775 1150
Wire Wire Line
	4775 1150 5150 1150
Wire Wire Line
	3775 1150 2450 1150
Wire Wire Line
	2025 1150 2025 2700
Connection ~ 3775 1150
$Comp
L Device:R_Small R2
U 1 1 5D1E5ACE
P 4100 2900
F 0 "R2" V 4025 2875 50  0000 C CNN
F 1 "22" V 4100 2900 50  0000 C CNN
F 2 "Resistors_SMD:R_0805_HandSoldering" H 4100 2900 50  0001 C CNN
F 3 "~" H 4100 2900 50  0001 C CNN
	1    4100 2900
	0    1    1    0   
$EndComp
$Comp
L Device:R_Small R3
U 1 1 5D1E5C47
P 4100 3000
F 0 "R3" V 4175 2975 50  0000 C CNN
F 1 "22" V 4100 3000 50  0000 C CNN
F 2 "Resistors_SMD:R_0805_HandSoldering" H 4100 3000 50  0001 C CNN
F 3 "~" H 4100 3000 50  0001 C CNN
	1    4100 3000
	0    1    1    0   
$EndComp
Wire Wire Line
	4200 2900 4550 2900
Wire Wire Line
	4550 3000 4200 3000
Wire Wire Line
	4000 3000 2025 3000
Wire Wire Line
	2025 2900 4000 2900
$Comp
L Device:R_Small R1
U 1 1 5D1E6C5E
P 3325 1775
F 0 "R1" H 3384 1821 50  0000 L CNN
F 1 "R_Small" H 3384 1730 50  0000 L CNN
F 2 "Resistors_SMD:R_0805_HandSoldering" H 3325 1775 50  0001 C CNN
F 3 "~" H 3325 1775 50  0001 C CNN
	1    3325 1775
	1    0    0    -1  
$EndComp
$Comp
L power:+5V #PWR0105
U 1 1 5D1E6D44
P 2025 1150
F 0 "#PWR0105" H 2025 1000 50  0001 C CNN
F 1 "+5V" H 2040 1323 50  0000 C CNN
F 2 "" H 2025 1150 50  0001 C CNN
F 3 "" H 2025 1150 50  0001 C CNN
	1    2025 1150
	1    0    0    -1  
$EndComp
Connection ~ 2025 1150
$Comp
L power:+5V #PWR0106
U 1 1 5D1E6D6C
P 3325 1675
F 0 "#PWR0106" H 3325 1525 50  0001 C CNN
F 1 "+5V" H 3340 1848 50  0000 C CNN
F 2 "" H 3325 1675 50  0001 C CNN
F 3 "" H 3325 1675 50  0001 C CNN
	1    3325 1675
	1    0    0    -1  
$EndComp
$Comp
L Switch:SW_DIP_x01 SW1
U 1 1 5D1E721B
P 3325 2200
F 0 "SW1" H 3325 2467 50  0000 C CNN
F 1 "SW_DIP_x01" H 3325 2376 50  0000 C CNN
F 2 "Resistors_SMD:R_0805_HandSoldering" H 3325 2200 50  0001 C CNN
F 3 "" H 3325 2200 50  0001 C CNN
	1    3325 2200
	0    -1   -1   0   
$EndComp
$Comp
L power:GND #PWR0107
U 1 1 5D1E72B5
P 3325 2500
F 0 "#PWR0107" H 3325 2250 50  0001 C CNN
F 1 "GND" H 3330 2327 50  0000 C CNN
F 2 "" H 3325 2500 50  0001 C CNN
F 3 "" H 3325 2500 50  0001 C CNN
	1    3325 2500
	1    0    0    -1  
$EndComp
Wire Wire Line
	3325 1875 3325 1900
Wire Wire Line
	4675 1900 4550 1900
Connection ~ 3325 1900
Connection ~ 4550 1900
Wire Wire Line
	4550 1900 3325 1900
$Comp
L Device:Crystal_Small Y1
U 1 1 5D1EA398
P 4025 2200
F 0 "Y1" V 3979 2288 50  0000 L CNN
F 1 "16MHz" V 4070 2288 50  0000 L CNN
F 2 "Crystals:Crystal_HC18-U_Horizontal" H 4025 2200 50  0001 C CNN
F 3 "~" H 4025 2200 50  0001 C CNN
	1    4025 2200
	0    1    1    0   
$EndComp
Wire Wire Line
	4025 2100 4550 2100
Wire Wire Line
	4025 2300 4550 2300
$Comp
L Device:C_Small C6
U 1 1 5D1EB3D1
P 3925 2300
F 0 "C6" V 3875 2425 50  0000 R CNN
F 1 "20pF" V 3800 2325 50  0000 R CNN
F 2 "Capacitors_SMD:C_0603_HandSoldering" H 3925 2300 50  0001 C CNN
F 3 "~" H 3925 2300 50  0001 C CNN
	1    3925 2300
	0    -1   -1   0   
$EndComp
Connection ~ 4025 2300
$Comp
L Device:C_Small C5
U 1 1 5D1EB41D
P 3925 2100
F 0 "C5" V 3975 2225 50  0000 R CNN
F 1 "20pF" V 4050 2125 50  0000 R CNN
F 2 "Capacitors_SMD:C_0603_HandSoldering" H 3925 2100 50  0001 C CNN
F 3 "~" H 3925 2100 50  0001 C CNN
	1    3925 2100
	0    -1   -1   0   
$EndComp
Connection ~ 4025 2100
$Comp
L power:GND #PWR0108
U 1 1 5D1EB457
P 3825 2200
F 0 "#PWR0108" H 3825 1950 50  0001 C CNN
F 1 "GND" V 3830 2072 50  0000 R CNN
F 2 "" H 3825 2200 50  0001 C CNN
F 3 "" H 3825 2200 50  0001 C CNN
	1    3825 2200
	0    1    1    0   
$EndComp
Wire Wire Line
	3825 2100 3825 2200
Connection ~ 3825 2200
Wire Wire Line
	3825 2200 3825 2300
$Comp
L power:+5V #PWR0109
U 1 1 5D1EBDAF
P 4550 2700
F 0 "#PWR0109" H 4550 2550 50  0001 C CNN
F 1 "+5V" V 4565 2828 50  0000 L CNN
F 2 "" H 4550 2700 50  0001 C CNN
F 3 "" H 4550 2700 50  0001 C CNN
	1    4550 2700
	0    -1   -1   0   
$EndComp
$Comp
L Connector:Conn_01x08_Female J2
U 1 1 5D1EC01D
P 5950 2200
F 0 "J2" H 5977 2176 50  0000 L CNN
F 1 "Conn_01x08_Female" H 5977 2085 50  0000 L CNN
F 2 "Wickerlib:CONN-HEADER-STRAIGHT-P2.54MM-1x08" H 5950 2200 50  0001 C CNN
F 3 "~" H 5950 2200 50  0001 C CNN
	1    5950 2200
	1    0    0    -1  
$EndComp
$Comp
L Connector:Conn_01x08_Female J4
U 1 1 5D1EC17B
P 5950 3400
F 0 "J4" H 5977 3376 50  0000 L CNN
F 1 "Conn_01x08_Female" H 5977 3285 50  0000 L CNN
F 2 "Wickerlib:CONN-HEADER-STRAIGHT-P2.54MM-1x08" H 5950 3400 50  0001 C CNN
F 3 "~" H 5950 3400 50  0001 C CNN
	1    5950 3400
	1    0    0    -1  
$EndComp
$Comp
L Connector:Conn_01x02_Female J5
U 1 1 5D1EC39E
P 5950 4000
F 0 "J5" H 5977 3976 50  0000 L CNN
F 1 "Conn_01x02_Female" H 5977 3885 50  0000 L CNN
F 2 "Wickerlib:CONN-HEADER-STRAIGHT-P2.54MM-1x02" H 5950 4000 50  0001 C CNN
F 3 "~" H 5950 4000 50  0001 C CNN
	1    5950 4000
	1    0    0    -1  
$EndComp
$Comp
L Connector:Conn_01x02_Female J3
U 1 1 5D1EC406
P 5950 2800
F 0 "J3" H 5977 2776 50  0000 L CNN
F 1 "Conn_01x02_Female" H 5977 2685 50  0000 L CNN
F 2 "Wickerlib:CONN-HEADER-STRAIGHT-P2.54MM-1x02" H 5950 2800 50  0001 C CNN
F 3 "~" H 5950 2800 50  0001 C CNN
	1    5950 2800
	1    0    0    -1  
$EndComp
$Comp
L Connector:Conn_01x06_Female J6
U 1 1 5D1EC966
P 5950 4500
F 0 "J6" H 5977 4476 50  0000 L CNN
F 1 "Conn_01x06_Female" H 5977 4385 50  0000 L CNN
F 2 "Wickerlib:CONN-HEADER-STRAIGHT-P2.54MM-1x06" H 5950 4500 50  0001 C CNN
F 3 "~" H 5950 4500 50  0001 C CNN
	1    5950 4500
	1    0    0    -1  
$EndComp
$Comp
L Device:C C9
U 1 1 5D1ECE3E
P 2450 1300
F 0 "C9" H 2565 1346 50  0000 L CNN
F 1 "10uF" H 2565 1255 50  0000 L CNN
F 2 "Capacitors_SMD:C_0805_HandSoldering" H 2488 1150 50  0001 C CNN
F 3 "~" H 2450 1300 50  0001 C CNN
	1    2450 1300
	1    0    0    -1  
$EndComp
Connection ~ 2450 1150
Wire Wire Line
	2450 1150 2025 1150
$Comp
L power:GND #PWR0110
U 1 1 5D1ECEDC
P 2450 1450
F 0 "#PWR0110" H 2450 1200 50  0001 C CNN
F 1 "GND" H 2455 1277 50  0000 C CNN
F 2 "" H 2450 1450 50  0001 C CNN
F 3 "" H 2450 1450 50  0001 C CNN
	1    2450 1450
	1    0    0    -1  
$EndComp
$EndSCHEMATC
